Operadora,Acre,Alagoas,Amapá,Amazonas,Bahia,Ceará,Distrito Federal,Espírito Santo,Goiás,Maranhão,Mato Grosso,Mato Grosso do Sul,Minas Gerais,Pará,Paraíba,Paraná,Pernambuco,Piauí,Rio de Janeiro,Rio Grande do Norte,Rio Grande do Sul,Rondônia,Roraima,Santa Catarina,São Paulo,Sergipe,Tocantins
000027-SALUTAR SAÚDE SEGURADORA S/A,0,0,0,0,3,2,31,10,14,0,0,0,216,4,4,11,1,0,26408,0,5,0,0,51,4282,0,9
000477-SOMPO SAÚDE SEGUROS S.A.,1,28,3,112,114,15,397,189,78,35,11,19,749,8,9,233,84,3,2712,3,71,1,0,22,119201,10,2
000515-ALLIANZ SAÚDE S/A,0,27,1,29,469,123,1743,61,285,223,16,31,5806,196,28,357,700,20,6318,58,352,11,1,101,75021,10,4
000582-PORTO SEGURO - SEGURO SAÚDE S/A,1,37,4,191,771,214,722,296,208,75,30,67,935,86,63,601,409,22,4012,604,710,6,2,360,219144,29,47
000701-UNIMED SEGUROS SAÚDE S/A,714,2151,666,2966,13284,14555,21770,6343,13784,7509,7718,6157,53339,7777,3298,19269,7235,1932,38979,4496,34327,2636,644,12346,193014,3637,2368
000884-ITAUSEG SAÚDE S.A.,1,3,0,0,52,14,27,8,9,6,14,33,119,6,9,54,217,2,1326,6,49,5,0,24,9463,4,2
005711-BRADESCO SAÚDE S.A.,1661,32525,3488,49725,236805,34808,82785,47045,56665,70294,19489,12175,188313,51331,37213,77098,113705,5237,671041,17377,87770,12858,909,64479,1497683,22604,7293
006246-SUL AMERICA COMPANHIA DE SEGURO SAÚDE,49,9573,11162,8164,80220,3789,41073,2683,15587,5457,11029,10595,39640,2003,2057,33086,91974,558,253707,9307,26440,2091,56,8360,1031646,1684,189
300012-CEMIL CENTRO MEDICO DE ITU LTDA.,0,0,0,0,0,0,0,0,0,0,0,0,0,0,0,0,0,0,0,0,0,0,0,0,9302,2,0
300136-UNIMED LITORAL SUL/RS - COOPERATIVA MÉDICA,1,101,5,0,131,0,3,37,80,30,83,109,125,52,7,181,64,6,287,8,26441,7,1,96,212,8,12
300713-UNIMED DE ASSIS COOPERATIVA DE TRABALHO MÉ,0,8,0,0,0,0,0,0,2,0,9,618,7,0,1,199,0,0,5,0,2,1,0,5,25302,0,1
300870-UNIMED DO BRASIL - CONF. NACIONAL DAS COOP,0,0,0,0,0,0,0,0,0,0,0,0,0,0,0,0,0,0,0,0,0,0,0,0,3,0,0
301060-UNIMED ITUIUTABA COOPERATIVA TRABALHO MÉDI,0,4,0,0,5,7,8,0,226,1,10,7,18182,1,1,1,0,0,5,0,0,0,0,1,155,0,12
301124-UNIMED GURUPI COOPERATIVA DE TRABALHO MÉDI,0,1,0,0,14,2,10,5,68,8,6,3,27,4,1,16,0,0,9,0,22,6,0,6,40,2,8279
301574-UNIMED DE LIMEIRA COOPERATIVA DE TRABALHO,0,5,0,1,26,15,3,10,21,4,14,3,277,1,1,78,24,2,64,7,62,1,0,38,45486,0,0
301728-PRONTOMED PLANOS DE SAÚDE LTDA,1,0,0,0,3,4,0,3,4,0,0,0,29648,0,1,0,0,0,7,0,5,0,0,1,2,2,0
301744-UNIMED JOAÇABA COOPERATIVA DE TRABALHO MÉD,1,1,0,0,3,3,1,1,33,2,3,8,5,1,0,100,0,0,1,0,120,2,0,15315,18,0,0
302091-SÃO FRANCISCO SISTEMAS DE SAÚDE SOCIEDADE,0,65,0,8,180,24,21,9,24281,68,9576,49624,12362,20,5,336,78,17,417,16,46,16,0,30,369671,23,6
302147-PREVENT SENIOR PRIVATE OPERADORA DE SAÚDE,1,3,0,4,36,6,38,10,22,0,7,16,469,8,96,83,10,3,133,23,29,1,0,81,332687,3,3
302228-UNIMED VALE DO CORUMBÁ COOPERATIVA DE TRAB,0,0,0,0,0,0,6,0,7897,0,1,0,17,0,0,2,0,0,0,0,0,0,0,1,0,0,1
302490-PRONTOMED NOVO HAMBURGO - PRONTO SOCORRO M,0,0,0,0,0,0,0,0,0,0,0,0,0,0,0,0,0,0,0,0,7806,0,0,0,0,0,0
302627-CAIXA DE ASSISTÊNCIA DOS MAGISTRADOS DE PE,0,0,0,0,0,1,0,0,0,0,0,0,1,0,14,0,2017,0,0,2,0,0,0,0,2,4,0
302953-UNIMED DE MACAÉ COOPERATIVA DE ASSISTÊNCIA,0,5,0,18,190,24,6,2197,1,21,8,2,1020,7,9,94,12,6,66464,137,73,0,0,89,1616,280,2
303178-UNIMED DE SOBRAL COOPERATIVA DE TRABALHO M,1,1,0,3,10,16627,5,1,4,15,8,4,2,10,10,1,12,11,10,7,19,1,2,5,11,9,2
303267-UNIMED JUNDIAI - COOPERATIVA DE TRABALHO M,0,11,0,17,13,18,4,18,39,3,22,13,335,20,6,126,34,6,67,2,56,5,0,68,97113,5,5
303356-UNIMED LITORAL COOPERATIVA DE TRABALHO MÉD,0,0,0,10,11,6,6,30,22,65,14,12,107,7,8,555,38,3,72,2,204,0,0,62319,351,0,3
303623-CENTRO TRASMONTANO DE SAO PAULO,0,0,0,2,3,3,7,2,1,2,1,6,37,0,2,8,1,2,13,2,6,0,0,11,95192,0,1
303739-SERMED-SAÚDE LTDA.,1,0,0,0,0,0,0,0,4,0,0,0,22,0,0,2,0,0,5,0,0,0,0,2,57548,1,0
303844-UNIMED DE ANDRADINA - COOPERATIVA DE TRABA,0,3,0,0,11,4,2,0,22,0,6,363,23,0,0,6,5,0,2,5,0,5,0,2,18930,0,0
303976-UNIMED DE BELÉM COOPERATIVA DE TRABALHO MÉ,31,53,1028,174,230,489,179,80,225,550,662,34,221,291135,92,150,160,91,1442,69,88,43,71,129,278,31,146
304051-UNIMED MONTES CLAROS COOPERATIVA DE  TRABA,24,114,10,5,131,67,4243,396,339,152,980,313,29426,259,104,46,72,6,88,10,45,78,46,440,69,4,258
304123-UNIMED DE AVARÉ COOPERATIVA DE TRABALHO MÉ,0,0,0,0,0,0,1,0,3,0,0,0,0,0,0,12,0,0,1,0,0,0,0,0,15383,0,2
304131-ASSOCIAÇÃO BENEFICENTE DE ASSISTENCIA A SA,0,1,0,0,1,2,9,0,0,0,0,1,4,0,0,5,0,0,5,0,2,0,0,29,572,1,0
304158-UNIMED BOA VISTA COOPERATIVA DE TRABALHO M,0,0,0,12,0,5,5,0,0,0,0,1,2,0,2,1,0,0,1,6,0,4,6651,1,1,0,2
304212-CENTRO CLINICO NH LTDA.,0,0,0,0,0,0,0,0,0,0,0,0,0,0,0,0,0,0,0,0,1996,0,0,0,0,0,0
304344-UNIMED PARÁ DE MINAS COOPERATIVA DE TRABAL,0,2,0,0,0,0,1,0,0,2,0,0,20906,0,0,1,0,0,1,0,0,0,0,0,6,0,0
304395-UNIMED INCONFIDENTES COOPERATIVA DE TRABAL,0,0,0,0,1,0,2,11,4,0,0,0,18149,2,0,0,0,0,7,0,0,0,0,0,15,0,0
304468-UNIMED BARRA DO GARÇAS - COOPERATIVA DE TR,0,0,0,0,4,0,11,5,872,1,14612,18,27,1,0,17,0,0,5,0,7,13,3,11,264,1,6
304531-AME-ASSISTÊNCIA MÉDICA A EMPRESAS LTDA,0,0,0,0,0,0,0,0,0,0,0,0,18955,0,0,0,0,0,112,0,0,0,0,0,2,0,0
304697-CENTRAIS ELÉTRICAS DE RONDÔNIA S/A - CERON,0,0,0,0,0,0,0,0,0,0,0,0,0,0,0,0,0,0,0,0,0,1064,0,0,0,0,0
304701-UNIMED CURITIBA - SOCIEDADE COOPERATIVA DE,47,135,57,399,1293,415,376,1028,1278,399,1924,2181,3273,762,211,466325,879,66,3479,210,11355,244,29,11834,20145,359,172
304883-UNIMED DE BOTUCATU COOPERATIVA DE TRABALHO,0,0,0,0,1,3,0,0,2,0,3,16,11,0,0,30,4,0,11,0,2,1,0,13,40592,0,7
305227-UNIMED DO OESTE DO PARANÁ - COOP. DE TRABA,0,0,0,0,30,0,3,4,7,6,107,232,21,13,0,20900,0,0,104,3,72,5,0,207,328,0,13
305472-UNIMED REGIONAL SUL GOIAS COOP. DE TRABALH,0,10,0,0,3,10,4,5,26351,17,686,5,2154,7,7,614,5,0,12,8,7,0,0,1,144,0,75
305626-PRONTOCLINICA E HOSPITAIS SAO LUCAS S/A,0,0,0,1,37,0,1,0,0,0,0,0,12704,0,0,0,0,0,1,0,0,0,0,1,26,0,0
305928-NOSAMED ASSISTÊNCIA MÉDICA LTDA.,0,0,0,0,0,0,0,0,1,0,0,0,3186,0,2,0,0,0,0,0,1,1,0,0,1912,0,0
305995-GOOD LIFE SAUDE LTDA,27,6,71,7,131,4,4,2,59,39,35,3,19390,71,0,1,0,0,198,0,3,130,0,1,29,0,1
306045-SANTA CASA DE MISERICÓRDIA DE TUPÃ,0,0,0,0,0,0,0,0,0,0,0,0,0,0,0,1,0,0,3,0,0,0,0,0,3395,0,0
306100-UNIMED REGIONAL DE CAMPO MOURÃO COOP TRAB,4,2,0,0,7,0,1,0,21,8,147,1792,5,7,0,22239,1,6,4,0,18,16,3,428,73,0,17
306126-UNIMED DE RIO CLARO SP COOPERATIVA DE TRAB,0,2,0,2,10,0,3,14,6,0,7,4,229,0,0,24,0,0,13,3,14,3,0,191,37471,0,0
306207-SOCIEDADE ESPANHOLA DE BENEFICENCIA,0,0,0,0,0,0,0,0,0,0,0,0,0,0,0,0,0,0,924,0,0,0,0,0,1,0,0
306398-UNIMED - COOPERATIVA DE SERVIÇOS DE SAÚDE,20,157,29,30,545,422,565,229,1824,194,394,366,4296,314,215,2241,368,125,3383,161,133988,102,12,3231,2842,233,386
306428-ASSOCIAÇÃO BENEFICENTE DE CAMPO GRANDE,0,0,0,0,0,0,0,0,0,0,0,1205,0,0,0,0,1,0,0,0,0,0,0,0,0,0,0
306444-PLASAC PLANO DE SAÚDE LTDA,0,0,0,0,0,0,0,0,0,0,0,0,0,0,0,0,0,0,0,0,0,0,0,0,8811,0,0
306525-EMPRESA DE TRANSPORTES E TRÂNSITO DE BELO,0,0,0,0,0,0,0,0,0,0,0,0,2131,0,0,0,0,0,0,0,0,0,0,0,0,0,0
306649-SERPRAM-SERV.DE PREST.DE ASSISTÊNCIA MEDIC,0,0,0,0,1,0,2,2,24,0,0,0,44955,0,0,0,0,0,9,0,4,0,0,18,1007,0,0
306665-UNIMED DO GUARUJÁ COOPERATIVA DE TRABALHO,0,0,0,0,0,0,0,0,0,0,0,0,0,0,0,1,0,0,0,0,0,0,0,0,28,0,0
306754-ASSOCIAÇÃO DOS FUNCIONÁRIOS DO FISCO DO ES,0,2,0,5,19,6,121,2,5886,5,8,3,81,2,3,0,5,0,26,0,2,0,0,1,90,3,244
306762-UNIMED REGIONAL JAU - COOPERATIVA DE TRABA,0,0,0,0,1,0,0,7,8,0,0,2,19,1,0,12,2,0,8,0,6,0,0,2,27930,0,0
306886-UNIMED JUIZ DE FORA COOPERATIVA DE TRABALH,7,47,10,578,1320,16,133,368,947,100,15,21,103815,1534,10,76,52,28,3621,12,46,7,3,719,1572,12,49
306959-UNIMED ALTO URUGUAI/RS - COOPERATIVA DE AS,0,0,0,0,0,0,0,0,0,0,0,0,4,0,0,1,0,2,0,0,5004,0,0,7,1,0,0
307319-CAIXA DE ASSISTÊNCIA DOS EMPREGADOS DO BAN,0,6,0,0,78,52,67,8,20,0,0,9,61,0,7,218,48,1,428,12,37911,0,0,1675,466,5,3
307751-FUNDAÇAO COMPESA DE PREVIDENCIA E ASSISTEN,0,2,0,0,7,0,0,0,0,0,0,0,0,0,13,0,9025,0,0,0,0,0,0,0,0,0,0
308005-IRMANDADE DA SANTA CASA DE MISERICÓRDIA DE,0,0,0,0,0,0,1,0,0,0,0,0,660,0,0,0,0,0,0,0,0,0,0,0,4450,0,0
308811-UNIMED VALE DO PIQUIRI-COOPERATIVA DE TRAB,0,0,0,0,0,0,0,0,2,0,180,111,0,0,0,6972,0,0,0,0,9,0,0,66,11,0,0
"309028-ASSOCIAÇÃO DOS SERVIDORES MUNICIPAIS, ESTA",0,0,0,0,0,0,0,0,0,0,0,0,1,0,0,0,0,0,33009,0,0,0,0,0,0,0,0
309087-UNIMED BARBACENA - COOPERATIVA DE TRABALHO,0,1,0,1,1,0,10,7,2,0,2,3,23752,0,0,5,0,0,42,1,0,0,0,1,30,4,1
"309192-SAMED - SERVIÇOS DE ASSISTÊNCIA MÉDICA, OD",0,2,0,0,2,2,0,0,106,1,0,0,9,0,0,48,0,0,8,0,0,0,0,0,79943,0,1
309222-GRUPO HOSPITALAR DO RIO DE JANEIRO LTDA,0,1,0,0,3,0,1,4,3,0,0,0,21,0,1,1,8,1,365061,2,3,0,0,2,19,0,0
309338-HOSPITAL REGIONAL DE FRANCA S/A,0,0,0,0,0,0,2,0,1,0,2,0,556,2,0,2,0,0,1,0,0,0,0,2,38362,0,0
309362-FUNDAÇÃO DE PREVIDÊNCIA DOS EMPREGADOS DA,0,1,0,0,0,0,3927,0,234,0,0,0,18,0,1,0,0,4,4,1,0,0,0,0,4,0,2
309401-HOSPITAL NOSSA SENHORA DAS GRAÇAS LTDA.,0,0,0,0,0,0,0,2,0,0,1,0,1462,0,0,0,0,0,0,0,0,0,0,0,0,0,0
309524-UNIMED DE MONTE ALTO - COOPERATIVA DE TRAB,0,0,0,0,0,0,1,0,0,0,4,0,3,1,0,4,0,0,0,0,0,0,0,3,6658,0,0
309699-CENTRO MEDICO SAPIRANGA LTDA,0,0,0,0,0,0,0,0,0,0,0,0,0,0,0,0,0,0,0,0,31,0,0,2,0,0,0
309907-UNIMED PALMAS COOPERATIVA DE TRABALHO MÉDI,2,8,1,6,49,29,1044,13,268,199,108,8,56,188,22,15,13,28,19,9,7,5,3,2,58,7,34648
310131-UNIMED PLANALTO - COOPERATIVA DE TRABALHO,0,0,0,0,58,1,920,0,4379,2,2,0,104,133,0,1,1,0,2,10,2,1,0,4,19,0,3
310239-CMI - CLINICA DE MEDICINA INTEGRADA LTDA.,0,0,0,0,0,0,0,0,0,0,0,0,625,0,0,0,0,0,0,0,0,0,0,0,0,0,0
310247-CIRCULO OPERARIO CAXIENSE,0,0,0,0,0,0,0,0,0,0,0,0,0,0,0,3,0,0,0,0,82265,0,0,17,6,0,0
310361-CENTRO BARBACENENSE DE ASSISTÊNCIA MEDICA,0,0,0,0,0,0,1,0,0,0,0,0,2383,0,0,0,0,0,0,0,0,0,0,26,1,0,0
310522-PROASA - PROGRAMA ADVENTISTA DE  SAÚDE,31,203,38,578,1463,219,905,516,400,601,348,358,1149,1033,97,1383,478,83,1022,135,939,384,51,671,4658,196,156
311057-UNIMED VALE DO URUCUIA - COOPERATIVA DE TR,0,0,0,3,0,0,7,0,8,0,0,0,6361,0,0,3,0,0,0,0,0,0,0,0,0,0,0
311146-UNIMED COSTA VERDE RJ,1,5,0,0,52,2,4,190,12,80,2,25,298,5,31,10,1,0,11541,3,8,0,0,2,60,1,2
311294-UNIMED DE OURINHOS - COOPERATIVA DE TRABAL,2,2,0,0,8,0,0,0,45,1,6,10,27,76,0,434,4,0,14,0,70,0,0,20,30864,0,6
311359-FUNDAÇÃO DE SAÚDE ITAIGUAPY,0,0,0,0,1,0,0,0,0,0,0,1,1,0,0,23014,2,0,0,0,1,0,0,2,3,0,0
311375-UNIMED PELOTAS/RS - COOPERATIVA DE ASSISTÊ,0,1,0,4,15,3,16,0,12,3,4,4,15,0,3,55,3,0,36,0,31972,4,0,169,84,11,0
311405-SMS - ASSISTÊNCIA MÉDICA LTDA,0,0,0,0,1,0,0,12666,0,0,0,0,8,0,0,0,0,0,64,0,0,0,0,0,4,0,0
311472-CEAM BRASIL - PLANOS DE SAÚDE S/A,0,0,0,0,1,0,0,0,0,0,0,0,2557,0,1,4,0,0,0,0,0,0,0,0,3,0,0
311499-FUNDAÇÃO BENEFICENTE RIO DOCE,0,0,0,0,0,0,0,6340,0,0,0,0,0,0,0,0,0,0,0,0,0,0,0,0,34,0,0
311618-UNIMED MISSÕES/RS - COOPERATIVA DE ASSISTÊ,0,5,0,0,0,0,1,0,1,0,4,4,3,1,1,32,0,0,4,0,19869,0,0,775,7,0,3
311715-UNIMED ENCOSTA DA SERRA/RS SOCIEDADE COOPE,0,7,0,0,17,47,5,2,20,1,3,0,12,2,4,12,22,0,28,0,34341,2,0,50,42,0,0
311847-UNIMED REGIONAL DA BAIXA MOGIANA - COOPERA,3,7,0,3,32,39,12,11,30,6,7,370,473,4,3,61,13,1,126,11,112,0,0,61,83420,6,6
311944-UNIMED DE ADAMANTINA-COOPERATIVA DE TRABAL,0,0,0,0,1,0,3,0,15,0,9,162,74,0,0,22,0,0,1,0,0,0,0,0,4609,0,0
311961-UNIMED DE MANAUS COOP. DO TRABALHO MÉDICO,19,165,52,144659,526,96,9953,29,958,122,20,8,101,184,63,80,55,18,1544,72,22,485,248,51,302,20,25
312126-FUNDAÇÃO SAÚDE ITAÚ,15,34,1,17,3206,40,1808,91,3535,33,30,31,15034,22,57,14366,56,6,17755,105,78,8,7,345,102449,21,69
312282-INTERMEDICI PIRACICABA ASSISTENCIA MEDICA,0,1,0,0,5,2,1,3,4,0,0,0,23,2,0,2,3,0,8,1,0,0,0,1,9108,0,0
312347-UNIMED ANÁPOLIS COOPERATIVA DE TRABALHO MÉ,0,0,0,0,12,0,68,1,30025,4,164,0,8,16,1,1,0,0,4,0,0,1,0,0,125,0,7
312363-UNIMED DO EST. DO RJ FEDERAÇÃO EST. DAS CO,0,0,0,0,0,0,0,0,0,0,0,0,0,0,0,0,0,0,5,0,0,0,0,0,0,0,0
312592-UNIMED NORTE FLUMINENSE COOPERATIVA DE TRA,3,3,0,4,15,3,5,1370,3,0,4,6,375,2,2,1,1,0,18081,0,2,1,0,9,31,0,2
312649-UNIMED AGRESTE MERIDIONAL - COOPERATIVA DE,0,109,0,0,0,4,0,0,0,0,0,0,0,0,0,0,17076,0,0,0,0,0,0,0,0,0,0
312720-UNIMED DO ESTADO DO PARANÁ FEDERAÇÃO ESTAD,407,43,2,71,878,112,93,1198,350,8,2745,1322,520,309,64,107825,79,36,3558,83,2739,2176,176,4788,2227,92,48
312851-UNIMED CAMPO GRANDE MS COOPERATIVA DE TRAB,19,6,0,10,34,23,94,10,152,8,951,104027,157,27,13,304,16,3,128,11,86,45,6,446,1290,5,19
312924-CAIXA ECONÔMICA FEDERAL,792,3760,531,2405,14370,8309,26977,6909,10415,3423,2956,3393,32240,4657,4093,19160,9161,2850,29417,3676,20186,1455,390,12518,62518,2449,1299
313084-COOPERATIVA DE TRABALHO MEDICO DE ARAGUAÍN,0,2,0,1,4,7,3,3,13,111,8,2,6,65,2,4,3,6,3,3,1,0,0,8,14,0,12084
313149-UNIMED DE BATATAIS - COOPERATIVA DE TRABAL,0,0,0,0,0,0,1,0,0,0,0,0,4,1,0,0,0,0,0,0,2,0,0,0,6727,0,0
313211-UNIMED VALE DO CAÍ/RS - COOPERATIVA DE ASS,0,39,0,0,11,1,5,12,16,4,5,14,391,1,6,240,2,0,40,2,32603,0,0,153,67,8,0
313475-UNIMED REGIONAL DE PICOS - COOPERATIVA DE,0,0,0,0,2,13,5,0,1,1,0,0,0,0,1,0,60,1696,0,1,0,0,0,19,6,0,0
313904-FUNDAÇÃO ELETROBRÁS DE SEGURIDADE SOCIAL -,0,1,2,4,13,22,176,9,2,3,0,7,55,1,0,4,19,0,6981,2,13,1,1,14,44,0,0
313955-UNIMED ALEM PARAIBA COOPERATIVA DE TRABALH,1,0,0,0,2,1,1,2,1,0,0,0,2308,0,0,0,0,0,596,3,0,0,0,0,2,1,0
313971-FEDERAÇÃO DAS SOCIEDADES COOPERATIVAS DE T,140,11,18230,2852,180,99,35,615,28,27,22,31,23,3023,48,17,14,19,4650,20,168,739,8368,16,110,8,207
314099-UNIMED VALE DO SEPOTUBA - COOPERATIVA DE T,2,11,0,7,22,2,0,2,40,55,35973,207,14,41,1,39,2,76,2,5,21,156,6,15,48,1,22
314102-IRMANDADE DA SANTA CASA DE MISERICORDIA DE,0,0,0,0,5,0,0,0,0,0,0,3,0,0,0,9,0,0,0,0,0,0,0,1,15319,0,0
314170-COOPERATIVA DE USUÁRIOS ASSISTÊNCIA MÉDICO,0,0,0,0,8,0,5,8,1,0,0,0,11256,0,1,0,0,0,1,0,0,0,0,8,772,0,0
314218-ASSOCIAÇÃO DE BENEFICÊNCIA E FILANTROPIA S,0,0,0,0,5,0,0,0,2,0,1,0,16,0,1,8,1,0,5,0,7,0,0,7,102243,0,0
314242-UNIMED DE PIRASSUNUNGA COOPERATIVA DE TRAB,0,0,0,0,0,0,0,0,1,1,0,0,6,0,0,1,0,0,1,0,0,0,0,0,9182,0,0
314251-CAIXA ASSISTENCIAL UNIVERSITÁRIA DO RIO GR,0,0,0,0,1,1,0,0,0,0,0,0,1,0,12,0,4,3,0,9205,0,0,0,0,4,0,0
314587-UNIMED VIÇOSA - COOPERATIVA DE TRABALHO MÉ,1,0,0,1,9,0,6,23,5,0,4,0,7266,0,0,3,2,0,41,5,2,0,1,0,32,1,6
314609-UNIÃO SAÚDE LTDA.,0,0,0,1,0,1,0,0,0,0,0,0,0,0,0,15,0,0,0,0,1,0,0,24385,0,0,0
314668-ABERTTA SAÚDE - ASSOCIAÇÃO BENEFICENTE DOS,0,0,0,0,18,4,0,1298,3,5,0,0,15474,1,0,11,1,0,24,4,5,0,0,2,1171,0,0
314706-HOSPITAL CÉSAR LEITE,0,0,0,0,0,0,0,1098,0,0,0,0,7437,0,0,228,0,0,4,0,0,0,1,0,0,0,0
314781-UNIMED DE DRACENA - COOPERATIVA DE TRABALH,0,0,0,0,0,0,1,0,0,0,1,17,0,0,0,2,0,0,0,0,0,0,0,0,8254,0,0
315044-FUNDAÇÃO CELESC DE SEGURIDADE SOCIAL - CEL,0,0,0,0,2,8,11,2,0,0,8,0,17,0,0,183,0,0,7,4,53,0,0,22427,6,0,0
315265-PARANA ASSISTENCIA MEDICA LTDA,0,0,0,0,0,0,1,0,1,0,9,9,3,0,0,24634,0,0,2,0,0,0,0,3,54,0,0
315478-FUNDAÇÃO CESP,1,8,0,0,102,65,53,27,71,5,20,850,909,15,14,332,50,16,152,29,42,11,0,142,75134,25,14
315494-UNIMED NOROESTE DE MINAS COOPERATIVA DE TR,0,3,0,0,0,0,11,0,37,0,19,0,8142,0,1,5,9,6,15,0,0,0,0,0,53,0,0
315567-FUNDAÇÃO AFFEMG DE ASSISTÊNCIA E SAÚDE - F,41,9,1,1,96,11,190,109,37,3,8,9,13914,10,12,30,9,2,429,5,15,2,0,30,602,5,4
315583-CAIXA DE ASSISTÊNCIA DOS EMPREGADOS DO BAN,0,0,0,0,4697,8,0,1,0,1,0,0,6,0,1,1,6,2,18,0,0,0,0,0,5,24,0
315630-SOCIAL-SOCIEDADE ASSISTENCIAL E CULTURAL,0,0,0,0,0,0,0,0,0,0,0,0,0,0,0,1,0,0,0,0,1178,0,0,0,0,0,0
315648-UNIMED CATAGUASES COOPERATIVA DE TRABALHO,0,0,0,0,1,0,3,2,1,0,1,0,11097,0,0,0,7,0,39,1,0,0,0,8,50,0,0
315729-UNIMED DE PIRACICABA SOCIEDADE COOPERATIVA,0,38,0,5,69,11,13,35,131,2,31,27,842,19,43,222,31,0,384,10,49,1,0,154,119334,4,9
315796-UNIMED DE PRESIDENTE PRUDENTE COOPERATIVA,3,7,0,0,18,11,15,6,37,4,67,614,65,6,27,977,35,9,45,59,13,8,0,58,92185,2,13
316148-UNIMED POÇOS DE CALDAS - SOC. COOP. DE TRA,0,0,0,0,26,0,2,3,0,18,0,0,32240,1,0,12,7,0,8,0,0,0,0,3,820,3,4
316458-UNIMED REGIONAL DE FLORIANO - COOPERATIVA,0,3,1,0,11,39,5,1,7,216,0,0,5,0,6,1,3,3189,4,15,0,1,0,0,9,7,0
316741-UNIMED DO ESTADO DE MATO GROSSO DO SUL - F,0,0,0,0,0,0,0,0,0,0,0,1,0,0,0,0,0,0,0,0,0,0,0,0,0,0,0
316849-TELOS - FUNDAÇÃO EMBRATEL DE SEGURIDADE SO,5,16,8,18,49,45,54,59,40,24,14,32,154,96,19,35,117,10,1732,29,52,23,7,46,191,21,4
316873-CAIXA DE ASSISTENCIA A SAUDE DA UNIVERSIDA,13,0,0,0,12,3,16,10,0,1,0,3,25449,0,1,3,0,0,13,0,3,0,2,1,27,2,0
316881-UNIMED TEOFILO OTONI COOPERATIVA DE TRABAL,0,0,0,0,53,0,3,19,1,1,0,0,35126,4,0,2,0,0,13,0,0,0,0,0,14,0,6
316903-POLIMÉDICA SAÚDE SOCIEDADE SIMPLES LTDA,0,0,0,0,0,0,0,0,0,0,0,0,0,0,0,0,0,0,0,0,1263,0,0,0,0,0,0
317012-COOPERATIVA DE TRABALHO MÉDICO DO PLANALTO,3,4,0,5,28,17,5,10,30,11,16,4,88,11,12,565,22,4,31,9,86,0,0,16277,104,3,3
317144-UNIMED DE FORTALEZA SOCIEDADE COOPERATIVA,55,112,80,216,659,327234,325,34,113,704,61,32,179,438,1526,111,873,1223,300,1724,386,160,127,103,3023,85,78
317233-FUNDAÇÃO CHESF DE ASSISTÊNCIA E SEGURIDADE,0,1112,0,0,9967,1869,52,6,9,34,0,0,21,20,913,26,16322,1559,115,511,7,0,1,12,63,802,0
317632-ASSOCIAÇÃO DOS AGENTES FISCAIS DE RENDAS D,1,1,0,7,26,14,29,5,14,2,19,43,87,5,7,108,7,0,83,9,16,2,3,79,19238,2,4
317896-UNIMED VERTENTE DO CAPARAÓ - COOPERATIVA D,0,0,0,0,1,0,4,37,3,6,2,1,13661,11,1,2,0,4,5,0,2,0,0,3,5,0,4
318035-UNIMED GUAXUPÉ COOPERATIVA DE TRABALHO MED,0,61,0,0,0,0,0,1,0,0,0,0,14918,1,0,5,0,0,1,3,11,0,0,2,935,0,0
318213-COOPERATIVA DE TRABALHO MEDICO REGIÃO DO P,3,0,0,0,7,3,5,0,6,1,8,6,25,0,2,65,2,0,8,0,64,1,0,20803,43,0,0
318299-BENEFICENCIA CAMILIANA DO SUL,0,5,8941,1,54,13226,45,0,818,2,1,1,2996,5923,30,13636,208,7,3,36,3972,5,5,10314,4848,2,1
318388-UNIMED DE SÃO ROQUE - COOPERATIVA DE TRABA,0,3,0,11,10,11,8,8,4,6,2,0,23,44,1,7,292,6,15,1,28,0,0,18,31207,0,0
318477-OPERADORA UNICENTRAL DE PLANOS DE SAÚDE LT,1,0,0,0,1,0,0,0,1,0,0,2,1,1,0,1,0,0,3,0,31,0,0,1,19547,0,0
318566-UNIMED METROPOLITANA DO AGRESTE - COOPERAT,0,14847,0,0,368,2,1,2,19,1,0,0,2,0,5,4,15,0,423,2,1,0,0,0,5,134,1
319121-UNIMED DIVINOPOLIS - COOPERATIVA DE TRABAL,2,12,1,10,153,5,84,361,79,12,7,125,174878,374,8,84,31,5,443,2,1,3,5,7,383,250,1
319180-SÃO DOMINGOS SAÚDE- ASSISTÊNCIA MÉDICA  LT,0,0,0,0,0,0,0,0,0,0,1,3,22,0,0,5,0,0,1,0,0,0,0,0,11904,0,0
319384-UNIMED PLANALTO MÉDIO- COOPERATIVA DE SERV,5,1,1,1,4,12,3,0,20,4,125,11,25,31,0,516,3,0,8,0,26594,7,2,470,94,0,9
319422-IRMANDADE DA SANTA CASA DE MISERICORDIA DE,0,0,0,0,0,0,2,0,0,0,0,0,6,3,0,1,0,0,2,0,0,0,0,0,16666,0,0
319708-UNIMED SANTA MARIA/RS - COOPERATIVA DE ASS,0,2,0,0,2,1,9,0,21,0,3,11,1,1,0,68,0,0,7,0,44366,0,0,38,23,0,4
319872-CAMIM-CLINICA MÉDICA LTDA,0,0,0,0,1,0,0,0,0,0,0,0,2,0,0,0,1,0,38484,0,0,0,0,0,0,0,0
319996-UNIMED DO ESTADO DE SP - FEDERAÇÃO ESTADUA,416,1544,560,1169,6736,2765,11571,3818,9277,1538,6889,11092,28026,4859,2276,14462,3898,975,11650,1534,9861,779,440,6619,487119,1208,1196
320111-SAÚDE SIM LTDA,0,0,0,0,8,0,51405,0,4533,0,0,1,24,2,0,38,0,0,47,0,1,0,0,0,16,0,0
320251-UNIMED RIO VERDE COOPERATIVA TRABALHO MEDI,0,1,0,0,0,0,6,0,47429,0,32,6,42,0,0,0,0,0,1,1,3,0,0,7,115,0,25
320510-ATÍVIA SERVIÇOS DE SAÚDE S/A,0,0,0,0,17,0,0,0,1,0,0,0,8,0,0,5,0,0,5,0,3,0,0,2,13593,0,0
320587-EMPRESA BRASILEIRA DE TELECOMUNICAÇÕES S.A,31,87,28,217,454,446,840,229,287,143,182,98,1403,378,76,762,431,89,9610,93,509,76,27,188,6528,51,31
320706-UNIMED SUL CAPIXABA COOPERATIVA DE TRABALH,5,37,0,4,426,23,11,81670,14,19,7,0,217,11,11,18,82,13,734,7,23,4,0,5,128,26,5
320820-CAIXA DE ASSISTÊNCIA SISTEMA SAÚDE INTEGRA,0,0,0,0,0,0,0,0,0,0,0,0,0,0,0,1,0,0,1,0,16480,0,0,2,6,0,0
320838-UNIMED INTRAFEDERATIVA FEDERAÇÃO REGIONAL,0,0,0,0,0,0,0,0,0,0,0,0,529,0,0,0,0,0,0,0,0,0,0,0,0,0,0
320862-UNIMED DE PARANAVAÍ COOPERATIVA DE TRABALH,1,0,0,0,0,0,2,0,1,4,80,130,7,5,0,21087,0,0,22,0,11,19,0,56,186,1,0
320897-UNIMED CENTRO SUL FLUMINENSE COOPERATIVA D,13,42,8,90,46,18,45,222,95,17,166,79,367,47,71,152,107,36,13232,20,25,70,18,112,1003,51,13
321044-UNIMED JOAO PESSOA - COOPERATIVA DE TRABAL,3,170,12,30,252,320,94,19,24,144,189,19,209,87,125549,187,2028,82,647,1181,42,44,37,29,433,81,27
321087-UNIMED MARQUES DE VALENÇA COOPERATIVA DE T,1,0,0,3,12,3,12,18,4,0,3,4,365,5,4,15,2,0,9377,0,2,0,0,17,71,2,4
321273-UNIMED DE JOINVILLE COOPERATIVA DE TRABALH,1,2,0,17,51,35,36,28,56,1,98,606,405,28,19,1985,213,2,451,11,1152,16,2,80843,913,9,2
321320-IRMANDADE DA SANTA CASA DE MISERICÓRDIA E,0,0,0,0,0,0,0,0,0,0,0,0,0,0,0,0,0,0,0,0,0,0,0,0,7849,0,0
321338-AMERON - ASSISTÊNCIA MÉDICA RONDÔNIA S/A.,47,0,0,64,0,0,0,0,83,0,0,0,0,65,0,1,0,0,455,0,0,14231,0,1,101,0,0
321869-CAIXA DE ASSISTÊNCIA DOS SERVIDORES DA CED,0,1,0,0,1,1,4,35,0,0,0,1,33,0,0,1,1,0,30693,0,1,0,0,3,5,2,0
321931-CONFERÊNCIA SÃO JOSÉ DO AVAÍ,0,0,0,0,0,0,0,27,0,0,0,0,40,0,0,1,0,0,2002,0,0,0,0,0,0,0,0
321958-UNIMED DO CEARÁ - FEDERAÇÃO DAS SOCIEDADES,4,32,5,42,1227,66248,33,10,45,131,21,5,69,72,159,57,127,168,86,356,55,28,31,62,252,12,7
322261-UNIMED DE FEIRA DE SANTANA COOPERATIVA DE,0,6,0,0,38082,13,3,2,1,0,0,0,39,2,18,5,16,5,12,5,1,1,0,20,20,17,1
322326-ASSOCIAÇÃO BENEFICENTE CATÓLICA,1,6,0,0,1,0,0,1,1,0,0,0,43646,0,1,1,6,0,19,10,0,0,0,6,3,0,0
322547-UNIMED ANGRA DOS REIS COOPERATIVA DE TRABA,1,4,1,0,33,4,18,136,4,7,17,11,80,148,18,17,10,0,12366,34,165,3,1,49,517,2,1
322571-UNIMED GUARAPUAVA COOPERATIVA DE TRABALHO,3,0,0,2,9,0,7,8,33,1,78,67,47,1,1,27710,13,13,78,1,68,0,0,313,311,0,19
322831-UNIMED ITAJUBA COOPERATIVA DE TRABALHO MED,0,3,0,6,0,6,95,2,14,0,0,0,32091,0,3,4,2,0,253,0,4,0,0,6,719,0,0
322920-IRMANDADE DA SANTA CASA DE MISERICÓRDIA DE,0,0,0,0,0,0,0,0,1,0,0,0,1,0,0,0,0,0,0,0,0,0,0,0,17344,0,0
323004-UNIMED DE PENAPOLIS - COOPERATIVA DE TRABA,0,0,0,0,0,0,0,0,0,0,1,2,0,0,0,1,0,0,1,4,0,0,0,0,4457,0,0
323055-UNIMED NORTE PAULISTA - COOPERATIVA DE TRA,0,0,0,0,0,0,0,0,0,3,0,4,34,0,0,0,0,0,0,0,0,0,0,0,17654,0,0
323080-GEAP AUTOGESTÃO EM SAÚDE,3675,14793,11095,11587,21173,18937,61846,8214,14292,19264,7391,5015,26087,11017,33756,13400,26028,10953,86897,11815,18913,5715,5108,15039,37280,11543,2747
323268-UNIMED VALE DO SÃO FRANCISCO COOPERATIVA D,0,20,0,1,24463,68,4,4,3,7,0,0,9,5,36,4,36675,157,2,13,7,3,0,0,16,26,1
323357-UNIMED CABO FRIO COOPERATIVA TRABALHO MÉDI,0,1,0,0,3,2,8,12,0,3,1,1,18,2,1,4,6,1,7034,2,3,0,0,3,12,1,0
323811-ASSISTENCIA MEDICO HOSPITALAR SAO LUCAS S/,0,1,0,0,2,0,1,0,2,0,7,6,5,2,1,10,0,0,4,0,2,0,1,28,71355,0,4
323926-UNIMED SÃO JOÃO DEL REI - COOPERATIVA DE T,0,1,0,2,6,0,38,2,1,4,7,0,22166,0,0,4,2,1,40,0,0,1,0,9,80,0,0
323942-FUNDAÇÃO FILANTRÓPICA E BENEFICENTE DE SAÚ,0,0,0,0,3,1,3,7,0,0,0,0,12716,0,0,0,2,0,10,0,0,0,0,0,83,0,0
323993-UNIMED PETROPOLIS COOPERATIVA DE TRABALHO,0,7,0,0,20,7,16,29,118,0,8,0,204,6,11,33,27,0,36263,47,52,4,0,24,343,0,2
324159-UNIMED ALTA MOGIANA COOPERATIVA DE TRABALH,0,0,0,0,0,0,0,0,17,0,0,2,102,0,0,7,0,0,1,0,0,0,0,2,19499,0,2
324175-UNIMED SUDOESTE DE MINAS COOPERATIVA DE TR,0,0,0,0,1,0,0,0,0,0,0,2,7997,0,0,2,0,0,1,8,0,5,0,1,53,0,0
324213-UNIMED NORTE/NORDESTE-FEDERAÇÃO INTERFEDER,1,214,0,3,34866,12373,4090,12,8835,257,3,0,177,3,882,1,21308,144,2468,192,3,546,0,0,18711,143,0
324299-PLAMER PLANO MEDICO RESENDE LTDA,0,0,0,0,2,0,1,0,0,0,0,0,20,0,0,0,0,0,10872,1,0,0,0,0,201,0,0
324345-UNIMED COSTA DO DESCOBRIMENTO COOPERATIVA,0,9,0,0,23412,5,7,229,8,10,3,62,154,15,5,30,13,0,223,4,228,5,0,4,105,8,0
324361-CAIXA DE ASSISTÊNCIA À SAÚDE - CABERJ,0,34,0,22,101,60,130,113,21,18,7,19,607,23,16,46,89,16,88706,23,54,3,1,90,1448,18,9
324477-CAIXA DE PREVIDÊNCIA E ASSISTÊNCIA DOS SER,582,3319,1031,1476,9860,5270,4406,1628,3004,6639,1231,1456,4257,6194,3697,1287,7122,2250,12673,2568,655,3220,503,541,445,2505,1260
324493-S.P.A SAUDE- SISTEMA DE PROMOÇÃO ASSISTENC,0,0,0,4,18,1,13,7,28,5,46,38,12316,7,0,43,1,0,32,6,7,1,0,17,6348,0,6
324523-UNIMED PARAIBA - FEDERAÇAO DAS SOCIEDADES,0,0,0,0,0,0,0,0,0,0,0,0,0,0,1951,0,0,0,0,1,0,0,0,0,0,0,0
324566-UNIMED DE CATALÃO COOPERATIVA DE TRABALHO,0,0,0,0,16,8,27,0,16474,65,2,0,192,3,0,181,3,0,4,2,2,0,0,0,49,0,12
324698-CRUSAM CRUZEIRO DO SUL SERVIÇO DE ASSISTÊN,0,0,0,0,2,0,0,1,0,0,0,0,6,0,0,0,0,0,1,0,1,0,0,1,56328,0,0
324892-CETESB - COMPANHIA AMBIENTAL DO ESTADO DE,0,1,0,0,0,0,0,0,0,0,0,1,9,0,29,3,0,0,14,10,0,12,0,0,3939,0,0
325031-UNIMED DE LENÇOIS PAULISTA - COOPERATIVA D,0,0,0,0,9,1,0,8,3,0,5,2,6,4,1,10,3,0,2,3,1,0,0,2,26197,0,2
325074-GREEN LINE SISTEMA DE SAÚDE S.A,0,2,0,0,5,90,3,0,2,0,0,4,68,0,0,19,0,0,6,1,0,0,0,2,455107,0,0
325082-UNIMED DO OESTE DA BAHIA COOPERATIVA DE TR,0,9,0,1,7628,1,28,0,26,1,2,3,8,2,3,7,5,4,4,0,9,0,0,4,8,6,33
325236-ASSISTÊNCIA MÉDICA SÃO MIGUEL LTDA,0,0,0,0,0,0,0,0,0,0,0,0,0,0,0,0,0,0,0,0,0,0,0,0,21191,0,0
325465-AMPARA ASSISTÊNCIA MÉDICA PARAÍSO LTDA,0,0,0,0,1,0,0,0,2,0,0,0,9703,0,0,0,0,0,2,0,0,0,0,0,33,0,0
325571-UNIMED NORDESTE RS SOCIEDADE COOPERATIVA D,0,17,0,25,108,61,25,45,53,3,76,35,83,20,22,1068,84,1,210,43,199289,21,3,1524,891,7,3
326089-UNIMED DE FERNANDOPOLIS - COOPERATIVA DE T,0,0,0,0,1,0,1,0,8,0,7,147,109,0,1,1,1,0,0,0,0,5,0,1,7251,0,0
326305-AMIL ASSISTÊNCIA MÉDICA INTERNACIONAL S.A.,106,16637,1144,13269,62815,34738,217675,11869,25165,15453,5726,1361,85981,5676,3960,190917,137582,825,821761,74657,16230,341,86,7163,2028011,2504,593
326356-SERVMED SAÚDE LTDA,0,0,0,0,0,0,0,0,0,0,0,0,0,3,0,0,0,0,0,0,1,0,0,14644,0,0,0
326500-SOBAM CENTRO MÉDICO HOSPITALAR S.A.,0,0,0,0,1,0,0,0,0,0,0,1,14,0,0,6,6,0,0,0,0,0,0,0,102743,2,1
326755-ASSOCIAÇÃO EVANGELICA BENEFICENTE DE LONDR,0,0,0,0,0,2,0,5,0,0,9,16,2,0,0,41762,0,0,6,0,8,6,0,34,148,0,0
326861-PROMÉDICA - PROTEÇÃO MEDICA A EMPRESAS S.A,0,2,0,0,59283,1,1,0,0,0,1,0,122,0,1,0,3,0,5,0,0,0,0,0,9,66,2
327328-CASA DE SAÚDE NOSSA SENHORA DE FÁTIMA  LTD,0,0,0,0,4,159,0,0,0,0,0,0,0,0,0,0,55,0,0,0,0,0,0,0,0,0,0
327352-UNIMED SÃO SEBASTIÃO DO PARAÍSO COOPERATIV,0,0,0,0,1,0,1,0,1,0,0,0,6058,2,0,1,0,0,3,0,3,0,0,3,135,0,0
327417-AUSTACLINICAS ASSISTÊNCIA MÉDICA E HOSPITA,0,0,0,0,0,1,3,0,53,0,12,65,1737,4,0,9,0,0,5,0,8,3,0,6,58103,0,2
327468-UNIMED DE ITAPEVA - COOPERATIVA DE TRABALH,0,0,0,0,0,0,0,0,0,0,0,1,4,0,5,236,1,0,0,0,0,0,0,1,9276,0,0
327557-CAIXA ASSISTENCIAL E BENEFICENTE DOS FUNCI,0,0,0,1,3,0,5,0,7,0,5,5,21,0,1,108,3,0,15,2,122,0,2,10303,50,0,0
327638-UNIMED SÃO JOÃO NEPOMUCENO COOPERATIVA DE,0,0,0,0,0,0,0,2,0,0,0,0,6066,0,0,0,0,0,9,0,0,0,0,0,1,0,0
327689-UNIMED MACEIO COOPERATIVA DE TRABALHO MÉDI,5,117511,0,9,181,87,84,43,68,9,35,37,115,26,167,51,929,17,216,129,100,19,14,56,366,290,6
328031-UNIMED FEDERAÇAO DO ESTADO DO MATO GROSSO,0,0,0,0,5,0,0,0,1,0,92,0,1,0,0,0,0,6,0,0,0,0,0,0,1,0,0
328073-UNIMED DE VOTUPORANGA - COOPERATIVA DE TRA,0,0,0,0,1,0,3,1,14,0,6,143,13,0,0,6,0,0,0,0,0,0,0,11,9080,0,8
328294-UNIMED NORDESTE PAULISTA - FED. INTRAFEDER,15,95,25,1086,326,101,12,340,5909,201,1169,9264,5288,151,701,3028,722,49,630,2359,259,48,13,178,40867,27,67
328308-UNIMED DE MOCOCA COOPERATIVA DE TRAB. MÉDI,0,0,0,0,1,0,0,0,2,0,0,0,196,0,0,3,0,0,1,0,0,0,0,0,11336,0,0
328332-AMI - ASSISTÊNCIA MÉDICA INFANTIL LTDA,0,5269,0,0,6539,0,226,0,0,0,0,0,0,0,0,11,9,0,0,0,0,0,0,0,0,0,0
328375-UNIMED REGIÃO DA FRONTEIRA - RS COOPERATIV,0,0,0,0,0,0,0,0,2,0,4,1,0,0,0,2,0,0,1,0,4751,0,0,8,0,0,0
328537-MED-TOUR ADMINISTRADORA DE BENEFÍCIOS E EM,0,0,0,0,1,0,0,0,0,0,0,0,1,0,0,0,0,0,0,0,0,0,0,4,42866,0,0
328596-UNIMED URUGUAIANA/RS COOPERATIVA DE ASSIST,0,0,0,0,0,1,1,0,1,0,2,0,0,1,0,10,0,0,4,0,7823,0,0,10,24,0,0
329282-INDUSTRIAS NUCLEARES DO BRASIL S/A - INB,0,0,0,0,93,5,3,0,0,0,0,0,63,0,0,1,0,0,605,0,0,0,0,0,55,1,0
329339-UNIMED DE CRICIÚMA COOPERATIVA DE TRABALHO,0,8,0,6,28,18,28,5,34,6,14,2,90,13,5,165,28,1,62,17,277,4,0,62456,619,15,5
329355-IRMANDADE DE MISERICORDIA DE PORTO FERREIR,0,0,0,0,0,0,0,0,0,0,0,0,0,0,0,0,0,0,0,0,0,0,0,1,13352,0,0
329665-FUNDAÇÃO ASSISTENCIAL DOS EMPREGADOS DA CE,0,0,0,0,0,0,0,855,0,0,0,0,0,0,0,0,0,0,4,0,0,0,0,0,0,0,0
329886-UNIMED DE JABOTICABAL COOP. DE TRABALHO MÉ,0,0,0,0,62,0,0,470,35,5,17,86,105,4,4,280,8,0,110,4,149,0,0,17,29600,1,1
330027-CAIXA DE ASSISTÊNCIA A SAÚDE DA UNIVERSIDA,2,0,0,0,18,2,3,6247,8,0,3,2,68,1,0,11,16,0,80,6,8,16,0,1,32,1,0
330051-COMPANHIA DE ENGENHARIA DE TRAFEGO - CET,0,0,0,0,0,1,1,0,0,0,0,0,0,0,0,0,0,0,0,0,0,0,0,0,11257,0,0
330108-UNIMED CURVELO COOPERATIVA DE TRABALHO MÉD,0,0,0,0,205,0,8,98,23,0,0,25,31721,0,0,3,1,0,9,0,7,0,0,2,10,0,0
330116-SANTA CASA DE MISERICÓRDIA DE VOTUPORANGA,0,0,0,0,0,0,0,0,0,0,1,5,5,0,0,0,0,0,0,0,0,0,0,0,13081,0,0
330264-UNIMED DE BARRA MANSA SOC. COOP. SERV.MED.,0,1,0,0,5,2,0,20,1,0,1,1,135,7,0,4,2,0,23378,3,6,0,0,9,680,0,0
330281-ASSOCIAÇÃO DOS AUDITORES FISCAIS DO ESTADO,0,15,0,0,8,5,0,1,0,0,0,0,0,0,4108,0,43,0,0,2,0,0,0,0,1,0,0
330337-SOCIEDADE OPERÁRIA HUMANITÁRIA,0,0,0,0,0,0,0,0,0,0,0,0,0,0,0,0,0,0,0,0,0,0,0,0,2545,0,0
330566-UNIMED RESENDE COOPERATIVA DE TRABALHO MÉD,3,3,0,8,11,10,42,17,21,0,1,8,119,5,3,43,5,3,15897,3,26,1,1,15,298,0,0
330809-FUNDAÇÃO DE SEGURIDADE SOCIAL DA ARCELORMI,0,0,0,0,0,1,0,18507,2,2,0,0,84,0,0,0,0,0,27,0,2,0,0,6,24,2,0
330892-SOCIEDADE DIVINA PROVIDÊNCIA - SAÚDE CONCE,0,0,0,0,0,0,0,0,0,0,0,0,0,0,0,2,0,0,0,0,2,0,0,10984,0,0,0
331317-REAL GRANDEZA - FUNDAÇÃO DE PREVIDÊNCIA E,3,1,0,11,77,48,1696,1042,4172,36,122,45,8496,29,37,1906,46,21,37273,21,93,61,3,173,9016,10,134
331341-UNIMED DE BEBEDOURO COOPERATIVA DE TRABALH,0,0,0,0,4,1,2,2,23,0,8,4,1562,1,1,9,2,0,6,0,0,0,0,5,42286,0,4
331651-UNIMED ARAXÁ COOPERATIVA DE TRABALHO MÉDIC,0,32,0,0,294,18,12,265,805,15,41,23,22322,2,55,38,0,0,20,4,0,21,0,17,969,7,9
331856-CAIXA DE ASSISTENCIA MEDICA DOS EX-EMPREGA,0,0,0,0,0,0,0,0,0,0,379,0,0,0,0,0,0,1,0,0,2,0,0,0,0,0,0
331872-UNIMED SAO JOSE DOS CAMPOS - COOPERATIVA D,0,7,0,70,21,70,26,36,81,11,19,34,695,42,56,298,68,19,378,26,350,43,1,98,98005,10,4
331988-PASA - PLANO DE ASSISTENCIA A SAUDE DO APO,0,2,4,2,434,15,47,16547,8,3554,1,92,20075,3647,3,8,5,17,5275,8,5,1,0,15,230,645,4
332291-POLYMED - POLYCLÍNICA MÉDICA E OPERADORA D,0,0,0,0,0,0,0,0,0,0,0,0,2,0,0,1,0,0,0,0,10,0,0,4128,1,0,0
333051-UNIMED DE GUARULHOS COOPERATIVA DE TRABALH,0,1,0,6,49,11,6,47,57,8,4,0,135,42,4,112,54,1,455,5,399,0,0,33,90785,1,0
333221-AMHPLA COOPERATIVA DE ASSISTENCIA MEDICA,0,0,0,0,0,0,0,0,0,0,0,0,21,0,0,1,0,0,2,0,0,0,0,2,31391,0,0
333328-ASSOCIAÇÃO PRÓ-SAÚDE,0,0,0,0,0,0,0,0,0,0,0,0,17,0,0,1,0,0,0,0,0,0,0,0,5406,0,0
333662-UNIMED DE DOURADOS COOPERATIVA DE TRABALHO,0,0,0,0,0,0,164,0,0,0,4,41978,2,0,5,12,0,0,0,2,2,3,0,1,18,0,1
333689-MEDISERVICE OPERADORA DE PLANOS DE SAÚDE S,0,338,0,926,24579,978,2552,4412,1292,1802,542,236,5565,400,1664,2305,5698,154,31631,458,4876,68,4,22534,193345,225,219
333808-IRMANDADE DE MISERICÓRDIA DO HOSPITAL DA S,0,0,0,0,0,0,0,0,0,0,0,1,1,0,1,0,0,0,0,0,0,0,0,0,11499,0,0
333867-ASSOCIAÇAO UNISAUDE MARAU,0,0,0,0,0,0,0,0,0,0,0,0,0,0,0,0,0,0,0,0,5203,0,0,0,0,0,0
333875-IRMANDADE DA SANTA CASA DE MISERICÓRDIA DE,0,0,0,0,0,0,2,0,5,0,1,0,9063,0,0,1,0,0,2,0,0,0,0,0,43,0,0
334154-UNIMED DE CAÇAPAVA - COOPERATIVA DE TRABAL,0,0,0,3,3,37,4,0,7,0,4,1,182,0,3,209,23,0,58,0,294,0,0,497,14239,5,0
334189-COMPANHIA NACIONAL DE ABASTECIMENTO - CONA,104,260,20,420,501,809,3315,456,1239,516,428,282,721,279,655,489,1047,541,628,370,372,203,64,185,236,39,317
334511-UNIMED VALE DO PARAÍBA - FEDERAÇÃO INTRAFE,0,0,0,0,0,0,0,0,0,0,0,0,0,0,0,0,0,0,0,0,0,0,0,0,303,0,0
334561-UNIMED BLUMENAU - COOPERATIVA DE TRABALHO,0,4,0,5,20,43,14,74,24,7,34,21,253,51,26,798,61,3,84,28,332,3,0,101132,1213,0,0
334847-UNIMED DE JATAÍ COOPERATIVA DE TRABALHO MÉ,0,0,0,0,0,0,0,0,7653,0,1,2,6,0,4,1,0,0,2,0,0,0,0,0,21,0,0
335100-UNIMED SAO JOSÉ DO RIO PRETO - COOP. DE TR,5,28,0,7,69,170,93,24,404,22,182,406,1684,32,90,297,70,118,369,22,48,14,4,83,132335,0,21
335215-UNIMED ARARUAMA COOPERATIVA DE TRABALHO MÉ,5,0,0,1,8,10,8,40,6,1,0,10,29,3,6,12,3,0,19616,6,13,0,0,8,47,0,0
335479-UNIMED NOVA FRIBURGO-SOC.COOP.SERV.MED.HOS,0,2,0,0,12,3,7,42,2,6,2,5,65,3,0,32,2,0,38841,28,11,0,1,13,68,5,2
335517-UNIMED ITABIRA COOPERATIVA DE TRABALHO MÉD,0,0,0,0,5,0,6,180,8,0,34,2,17861,0,1,0,0,1,3,0,1,0,0,0,12,0,0
"335541-UNIMED VALE DAS ANTAS, RS - COOPERATIVA DE",0,1,0,1,18,1,0,2,2,7,1,3,8,1,6,126,12,2,0,4,15335,0,0,34,37,2,0
335592-UNIMED NATAL SOC. COOP. DE TRAB. MÉDICO,12,41,14,27,56,309,72,10,33,13,13,7,42,32,494,18,273,9,81,125136,18,16,12,24,127,21,4
335614-SAMEDIL SERVIÇOS DE ATENDIMENTO MÉDICO S/A,0,0,0,1,4,0,3,16963,0,1,0,0,12,2,0,0,0,0,3,0,0,0,0,0,0,0,0
335657-ADVANCE PLANOS DE SAÚDE LTDA,0,0,0,0,2,0,0,0,0,0,0,0,3,0,0,2,0,0,1,0,0,0,0,6,3631,0,0
335690-UNIMED CAMPINAS - COOPERATIVA DE TRABALHO,33,205,7,270,2038,1369,396,937,2209,184,699,1199,9567,1092,410,4785,1557,76,5873,342,4536,144,6,8452,525190,355,80
335754-ASSOCIAÇÃO DOS SERVIDORES FISCAIS DO ESTAD,0,0,0,0,6057,0,13,4,2,0,0,0,1,0,1,0,17,0,9,0,0,0,0,0,18,14,5
335789-CAIXA DE ASSISTÊNCIA DOS EMPREGADOS DO BAN,0,8,0,0,25,0,1,0,0,0,0,0,0,0,1,0,2,0,1,0,0,0,0,0,7,5470,0
335851-HC SAÚDE LTDA.,0,0,0,0,0,0,0,0,0,1630,0,0,7,45,0,0,0,6,0,0,0,0,0,0,0,0,3
336106-UNIMED DE MARILIA COOPERATIVA DE TRABALHO,9,11,0,95,85,22,11,11,31,8,42,65,165,13,20,7857,58,1,132,13,130,13,0,83,67335,4,0
336165-FUNDAÇÃO SABESP DE SEGURIDADE SOCIAL - SAB,0,1,0,1,8,7,1,1,5,0,0,7,84,0,2,68,2,0,8,4,3,0,0,8,44808,0,2
336441-ASSOCIAÇÃO DO MINISTÉRIO PÚBLICO DO RIO GR,3,0,0,0,1,0,19,2,0,3,12,0,1,0,0,2,0,0,0,11,2740,0,0,15,2,0,0
336467-UNIMED PATOS - COOPERATIVA DE TRABALHO MÉD,0,7,0,1,3,10,2,0,1,4,0,2,2,1,2699,1,36,3,5,25,0,4,0,0,1,0,0
336831-IRMANDADE SANTA CASA DE MISERICÓRDIA DE MA,0,0,0,1,0,2,1,0,0,0,3,8,1,0,0,31711,0,1,0,0,6,0,0,5,17,0,0
336858-UNIMED FRANCISCO BELTRAO COOPERATIVA DE TR,0,0,2,8,6,2,22,3,30,11,62,24,79,28,0,15699,5,2,62,2,240,109,0,974,65,3,10
337188-COOPERATIVA DE TRABALHO MÉDICO DE POUSO AL,1,39,8,30,79,59,34,37,77,39,14,22,59513,36,141,244,82,21,253,33,117,11,0,120,2677,18,22
337374-UNIMED RONDÔNIA - COOPERATIVA DE TRABALHO,309,16,1,110,8,60,60,5,71,5,33,39,66,29,65,156,17,2,285,21,40,33428,9,49,308,13,0
337498-UNIMED TRÊS RIOS COOPERATIVA DE TRABALHO M,0,1,0,0,0,3,1,5,7,0,0,0,452,0,0,18,0,0,14257,0,0,0,0,10,30,1,0
337510-MEDPLAN ASSISTÊNCIA MEDICA LTDA.,0,0,0,0,17,103,8,0,2,10184,0,0,2,11,5,0,41,61861,1,1,0,0,0,0,1,0,1
337561-UNIMED VALE DO CARANGOLA COOPERATIVA DE TR,0,0,0,0,2,0,0,48,0,0,0,0,4056,0,2,0,1,0,70,0,0,0,0,0,10,0,0
337668-UNIMED SERGIPE - COOPERATIVA DE TRABALHO M,1,540,0,3,727,30,38,7,15,15,0,6,34,8,36,20,152,13,46,32,21,1,4,16,67,78521,11
337871-UNIMED RIO BRANCO COOPERATIVA DE TRABALHO,24892,11,0,23,0,59,24,30,25,3,12,7,16,10,24,29,10,4,31,12,4,52,0,18,66,11,1
338206-SULCLINICA LTDA,0,0,0,0,0,0,0,0,0,0,0,0,0,0,0,0,0,0,0,0,1,0,0,0,0,0,0
338214-SANTA CASA DE MISERICORDIA DE BARRA MANSA,0,0,0,0,0,0,0,0,0,0,0,0,5,0,0,0,0,0,1118,0,0,0,0,0,25,0,0
338346-SULMED - ASSISTÊNCIA MÉDICA LTDA,1,0,0,0,0,0,0,0,0,0,0,0,0,0,0,0,1,1,1,2,11749,0,0,0,0,0,0
338559-COOPERATIVA DE TRABALHO MÉDICO DE SÃO LUÍS,2,3,0,4,8,33,140,1,911,39512,4,45,265,397,21,13,12,31,2058,10,3,5,4,7,115,4,15
338648-FUNDAÇÃO SANEPAR DE ASSISTÊNCIA SOCIAL,0,1,0,0,1,1,2,0,0,0,0,0,4,1,2,25441,1,0,5,0,4,3,1,143,24,0,0
338915-ASSOCIAÇÃO BRASILEIRA DOS EMPREGADOS EM TE,3,168,0,0,944,927,1387,4,60,502,1,5,51,615,1,9,19,236,46,1,3,0,0,5,5328,245,0
339270-CELULOSE NIPO-BRASILEIRA S/A - CENIBRA,0,0,0,0,0,0,0,4,0,0,0,0,11607,0,0,0,0,0,0,0,0,0,0,0,0,0,0
339539-IRMANDADE DA SANTA CASA DE MISERICÓRDIA DE,0,0,0,0,0,0,0,0,1,0,2,22,14,0,0,0,0,0,0,0,0,0,0,0,17353,0,0
339601-AGEMED SAÚDE S.A.,0,12,3,141,198,44,78,27,68,62,10894,48,190,31,21,2426,280,8,507,15,4857,5,0,177368,2026,3,10
339636-FUNDAÇÃO DE ASSISTÊNCIA E PREVIDÊNCIA SOCI,0,1,0,1,14,5,136,22,2,4,0,0,75,6,11,9,180,4,10423,6,6,0,0,9,196,2,0
339679-CENTRAL NACIONAL UNIMED - COOPERATIVA CENT,1997,9791,1747,13079,105230,29136,38521,22239,90317,14232,30585,38462,171373,32198,10450,96666,48195,5393,93707,11931,80386,7426,1414,45279,451346,9089,8699
339750-W.S. - ADMINISTRADORA DE PLANOS DE SAÚDE L,0,0,0,0,0,0,0,0,0,0,0,0,1,0,0,0,0,0,1,0,0,0,0,0,1678,0,0
339954-FUNDAÇÃO SÃO FRANCISCO XAVIER,0,5,1,0,49,20,8,1060,7,5,1,6,111200,2,1,37,39,0,154,4,1013,1,0,105,24587,14,1
340146-ASSOCIAÇÃO AUXILIADORA DAS CLASSES LABORIO,0,0,0,0,5,0,1,1,0,0,1,0,9,0,0,1,0,0,3,1,0,0,0,4,13255,0,0
340162-SAMIG - SERV. DE ASSISTENCIA MEDICA DA ILH,0,0,0,0,0,0,0,0,0,0,0,0,2,0,0,0,0,0,7382,0,0,0,0,0,0,0,0
340251-UNIMED EXTREMO OESTE CATARINENSE COOPERATI,0,0,3,0,2,0,0,0,4,0,18,4,3,4,1,577,3,0,0,1,355,11,0,8160,12,0,0
340782-CLINIPAM CLINICA PARANAENSE DE ASSISTENCIA,1,5,0,0,9,0,7,0,4,3,3,13,6,1,26,216392,41,0,54,3,29,3,2,239,343,0,1
340952-UNIMED CARUARU-COOPERATIVA DE TRABALHO MED,0,172,0,5,67,16,2,0,34,2,0,1,14,0,103,96,68417,3,8,11,413,4,0,4,18,40,4
341371-JOAQUIM OLIVEIRA S/A PARTICIPAÇÕES,0,0,0,0,0,0,5,0,398,0,0,0,0,1,0,0,77,0,0,5,1873,0,0,0,0,0,0
341819-UNIMED ALTO PARANAIBA COOPERATIVA DE TRABA,0,0,0,0,0,0,0,0,0,0,0,0,1288,0,0,0,0,0,0,0,0,0,0,0,0,0,0
341941-HOSPITAL DE PRONTOCLINICA LTDA.,0,0,0,0,0,0,0,0,0,0,0,4,0,0,0,0,0,0,0,0,9412,0,0,6,5,0,0
342033-SAMP ESPÍRITO SANTO ASSISTÊNCIA MÉDICA LTD,0,9,1,0,582,19,8,219867,5,20,8,1,359,3,4,8,4,3,84,1,3,0,0,7,168,15,2
342084-UNIMED CUIABA COOPERATIVA DE TRABALHO MÉDI,67,45,7,125,186,83,406,110,773,84,198710,626,603,386,89,646,124,18,208,34,472,753,34,198,867,42,91
342131-UNIMED VILHENA COOPERATIVA DE TRABALHO MED,10,0,0,4,3,2,0,1,3,2,106,11,15,3,7,35,3,0,8,0,4,6007,0,11,38,0,4
342157-UNIMED MORRINHOS COOPERATIVA DE TRABALHO M,0,0,0,0,0,0,5,0,3384,0,0,0,3,0,0,0,0,0,0,0,0,0,0,0,1,0,2
342343-UNIMED DE PINDAMONHANGABA - COOPERATIVA TR,0,0,0,0,6,0,1,2,0,0,0,0,20,1,2,2,0,4,10,0,0,0,0,0,13727,0,2
342386-UNIMED DE TRES LAGOAS COOPERATIVA DE TRABA,0,0,0,0,3,1,1,9,15,1,15,6167,49,0,0,9,1,0,6,0,0,1,0,2,305,0,3
342408-PAME - ASSOCIAÇÃO DE ASSISTÊNCIA PLENA EM,0,12,2,21,90,19,8672,23,46,41,24,9,32,71,9,27,131,2,7229,7,7,2,0,10,218,4,0
342556-ASSOCIAÇÃO DR. BARTHOLOMEU TACCHINI,0,0,0,0,1,1,0,2,0,0,1,2,0,0,0,5,0,0,1,0,58890,0,1,26,4,0,0
342611-ECONOMUS INSTITUTO DE SEGURIDADE SOCIAL,2,12,1,5,72,28,739,22,46,12,26,107,359,9,30,340,28,4,137,25,24,7,8,119,42149,10,10
342807-SANTA CASA DE MISERICÓRDIA DE JUIZ DE FORA,0,0,0,0,3,1,9,12,5,0,0,0,48911,0,2,1,0,0,817,1,1,1,0,2,45,0,2
342955-CLIMESA CLÍNICA MÉDICA SANTANA LTDA,0,0,0,0,0,0,0,0,0,0,0,0,0,0,0,0,0,0,4457,0,0,0,0,0,0,0,0
343013-CLIMEPE TOTAL LTDA,0,1,0,0,0,0,0,0,1,0,0,0,33193,0,0,3,0,0,1,0,0,0,0,1,1416,0,0
343064-GARANTIA DE SAÚDE LTDA,0,0,0,0,0,0,0,0,4,0,0,0,3,0,0,0,0,0,0,2,0,0,0,0,26238,0,0
343129-ASSOCIACAO DOS PROFESSORES UNIVERSITÁRIOS,0,0,0,0,3592,0,0,0,0,0,0,0,0,0,0,0,0,0,0,0,0,0,0,0,0,0,0
343153-UNIMED SOUSA - COOPERATIVA DE TRABALHO MÉD,0,0,0,0,3,25,0,0,0,3,0,0,0,2,2402,0,18,1,1,32,0,0,0,0,1,0,0
343269-UNIMED DE LONDRINA COOPERATIVA DE TRABALHO,21,31,3,21,194,33,102,87,266,38,1606,941,558,87,32,177085,98,16,177,1083,413,175,5,1023,4657,13,64
343331-CAIXA DE ASSISTÊNCIA DOS EMPREGADOS DO SIS,0,0,0,0,16,1,21,9817,2,3,0,0,95,0,0,2,0,0,266,0,0,0,0,4,74,2,0
343463-PLAMED PLANO DE ASSISTENCIA MEDICA LTDA,0,87,0,0,1443,182,0,164,0,0,0,0,2625,0,0,0,32,0,468,0,0,0,0,0,469,22321,0
343676-SAMOC S.A. - SOCIEDADE ASSISTENCIAL MÉDICA,0,0,0,0,1,0,1,0,0,0,0,1,3,0,0,0,0,0,11397,0,0,0,0,1,12,0,0
343684-UNIMED ALTO DA SERRA - SOCIEDADE COOPERATI,0,0,0,0,5,0,1,0,0,0,0,16,2,0,0,11,0,0,0,0,12042,3,0,145,3,9,0
343722-UNIMED PONTE NOVA COOPERATIVA DE TRABALHO,0,0,0,0,0,0,0,6,1,0,0,0,2621,0,0,0,0,0,5,0,0,0,0,2,10,0,0
343731-UNIMED-SÃO GONÇALO - NITERÓI - SOC.COOP.SE,0,8,0,11,51,23,38,133,41,187,13,8,291,25,11,27,41,9,183525,6,15,2,1,22,1100,5,3
343765-UNIMED CALDAS NOVAS - COOPERATIVA DE TRABA,0,0,0,0,0,4,7,0,2302,0,0,2,0,0,2,0,0,0,0,0,2,0,0,1,3,0,4
343889-UNIMED - BELO HORIZONTE COOPERATIVA DE TRA,27,247,38,207,5301,812,642,3329,1448,438,412,335,1161527,2097,155,2272,555,70,7790,802,1510,58,15,2139,11869,217,118
344010-PLANO DE SAUDE UNIFENAS,0,0,0,0,0,0,0,0,0,0,0,0,1016,0,0,0,0,0,0,0,0,0,0,0,6,0,0
344141-UNIMED CAJAZEIRAS - SOCIEDADE COOPERATIVA,0,0,2,0,1,7,0,0,0,1,0,0,0,0,637,0,5,0,0,1,0,0,1,0,1,0,0
344150-UNIMED DE SERTAOZINHO -  COOPERATIVA DE TR,0,59,0,0,2,0,0,0,39,0,4,30,49,3,0,35,8,0,0,2,8,0,0,4,9168,3,0
344184-CAIXA DE ASSISTÊNCIA DOS EMPREGADOS DO SET,0,0,0,0,0,0,4,0,1097,0,0,0,0,2,0,0,0,0,0,0,0,0,0,0,0,0,0
344362-SÃO LUCAS SAÚDE S/A,0,0,0,0,1,0,0,1,0,0,0,4,26,0,9,17,0,0,7,0,2,0,0,9,84835,0,0
344397-UNIMED NOVA IGUACU COOPERATIVA DE TRABALHO,1,34,0,13,88,52,41,122,41,17,17,35,206,33,44,44,72,14,84436,51,51,5,2,42,292,27,0
344443-VIDAPLAN SAÚDE LTDA. - EPP,0,0,0,0,0,0,0,934,0,0,0,0,0,0,0,0,0,0,0,0,0,0,0,0,0,0,0
344729-UNIMED VARGINHA COOPERATIVA DE TRABALHO MÉ,0,1,0,0,10,0,3,8,0,0,0,4,39105,0,5,18,0,0,47,0,5,1,0,2,710,0,0
344788-UNIMED DE CORUMBA COOPERATIVA DE TRABALHO,0,0,1,0,1,3,1,15,1,0,5,3688,83,0,2,4,0,0,19,0,0,0,0,3,5,1,0
344800-ALVORECER - ASSOCIAÇÃO DE SOCORROS MÚTUOS,0,0,0,0,0,0,0,0,0,0,0,0,0,0,0,0,0,0,0,0,0,0,0,0,15951,0,0
344885-UNIMED RECIFE COOPERATIVA DE TRABALHO MÉDI,0,117,1,20,244,4133,27,16,19,22,4,6,8551,7,437,2666,179790,36,230,108,510,2,9,9,6545,33,17
344915-SANTA CASA DE MISERICÓRDIA E ASILO DOS POB,0,0,0,0,0,0,0,0,0,0,0,0,0,0,0,0,0,0,0,0,0,0,0,0,1407,0,0
345091-SANTA CASA DE MISERICORDIA DE SAO JOAQUIM,0,0,0,0,0,0,3,1,4,0,1,0,25,0,0,1,0,0,0,0,0,0,0,2,24646,0,3
345270-UNIMED DO ABC - COOPERATIVA DE TRABALHO MÉ,0,1,0,0,5,0,1,4,5,0,5,0,16,0,0,38,1,0,412,1,15,0,0,9,6785,0,0
345458-UNIMED LAVRAS COOPERATIVA DE TRABALHO MÉDI,0,0,0,0,105,0,7,824,1,0,7,5,20422,0,4,11,11,0,52,4,12,1,0,2,312,0,3
345474-SERVIÇO FEDERAL DE PROCESSAMENTO DE DADOS,25,88,24,140,1008,1154,8905,218,262,77,64,80,1688,631,119,1422,1362,70,4628,115,921,23,18,395,3373,81,22
345598-UNIMED AMPARO COOPERATIVA DE TRABALHO MÉDI,0,0,0,0,4,12,0,1,16,2,8,0,349,0,0,36,5,0,3,3,14,0,0,5,38469,2,1
345628-WMS SUPERMERCADOS DO BRASIL LTDA,0,121,0,0,50,0,0,0,740,0,0,0,158,0,0,4393,0,144,0,375,41586,0,0,2282,138,0,816
345695-VALE S/A,0,39,50,25,1865,199,53,26366,231,20711,12,3065,74892,48449,148,49,55,67,10584,143,37,2,4,21,1464,3477,637
345709-UNIMED CONSELHEIRO LAFAIETE COOPERATIVA DE,0,17,1,0,2,0,4,3,0,0,0,1,22726,4,1,3,0,0,15,1,0,0,0,1,18,0,0
345741-IRMANDADE SANTA CASA DE MISERICÓRDIA DE IT,0,0,0,0,0,0,0,0,0,0,0,0,0,0,0,7,0,0,2,0,0,0,0,0,2872,0,0
345776-UNIMED DE BIRIGUI - COOPERATIVA DE TRABALH,0,0,0,0,1,0,5,3,1,3,2,856,6,0,5,16,0,0,6,0,4,1,0,3,19447,0,0
346209-UNIMED EXTREMO SUL COOPERATIVA DE TRABALHO,0,3,0,0,20738,8,5,693,10,1,0,2,217,4,2,0,2,1,21,3,4,6,0,12,1138,3,0
346276-UNIMED SALTO/ITU -  COOPERATIVA MÉDICA,0,1,0,0,29,12,1,32,22,7,17,6,1000,7,9,512,105,0,900,10,86,11,0,43,51941,8,1
346292-ASSOCIAÇÃO PORTUGUESA BENEFICENTE VASCO DA,0,0,0,0,1,0,0,0,0,0,0,0,1,0,3,0,0,0,0,0,1,0,0,0,1277,0,0
346403-BARDELLA S/A INDÚSTRIAS MECÂNICAS,0,3,0,0,3,1,0,282,1,0,0,5,3,1,0,0,1,0,8,0,0,15,0,0,1568,0,0
346471-SAMP MINAS ASSISTÊNCIA MÉDICA LTDA.,0,1,0,0,3,1,21,388,0,0,0,0,18990,1,0,0,0,0,19,0,1,0,0,5,72,0,0
346659-CAIXA DE ASSISTÊNCIA DOS FUNCIONÁRIOS DO B,1686,10207,1460,3743,68551,19579,74311,11221,17787,27202,8520,8670,63029,11158,12002,39225,32464,7806,73554,12081,39702,2951,964,21742,116474,13929,3027
346870-PORTO ALEGRE CLÍNICAS LTDA.,1,0,0,0,0,0,0,0,0,0,0,0,0,0,0,0,0,0,0,2,19639,0,0,6,2,0,0
346926-FUNDAÇÃO ASSISTENCIAL DOS SERVIDORES DO MI,223,1236,190,663,4308,2984,34344,949,1336,3817,562,291,3314,697,958,2428,3154,268,5340,1344,3299,277,108,1495,5593,1184,163
346951-UNIMED CAÇADOR COOPERATIVA DE TRABALHO MÉD,0,1,0,0,0,1,0,0,0,0,7,4,0,0,0,96,6,0,0,0,11,0,0,11806,14,0,1
347108-UNIMED DE BARRETOS COOPERATIVA DE TRABALHO,3,19,0,0,15,8,6,2,24,38,6,6,167,2,0,14,6,41,22,0,4,1,0,5,19302,0,0
347230-UNIMED ILHEUS COOPERATIVA DE TRABALHO MEDI,0,5,0,0,12271,0,7,9,7,0,2,0,12,7,0,4,1,0,8,0,3,0,1,0,13,7,0
347361-UNIMED FEDERAÇÃO INTERFEDERATIVA DAS COOPE,0,1,0,0,3,0,166,0,23,0,0,0,0,0,0,0,0,0,0,0,0,0,0,0,0,0,184
347507-UNIMED JI PARANÁ COOPERATIVA DE TRABALHO M,51,6,1,40,9,8,17,33,47,6,113,38,28,18,12,107,17,0,12,16,48,44718,5,41,104,2,6
347591-GAMEC - GRUPO DE ASSISTÊNCIA MEDICA EMPRES,0,0,0,0,0,16627,0,0,0,2,0,0,0,0,0,0,1,0,0,2,0,0,0,0,7,54,0
347655-IRMANDADE DA SANTA CASA DE MISERICÓRDIA DE,0,0,0,0,0,0,1,1,0,0,0,0,6,0,1,2,0,0,315,0,1,0,0,9,29136,0,0
347736-UNIMED CARATINGA - COOPERATIVA DE TRABALHO,0,0,0,0,3,0,1,14,0,1,1,0,6395,0,0,0,0,2,14,0,0,0,0,0,4,0,1
347825-CAIXA ASSISTENCIAL UNIVERSITARIA DO RIO DE,0,0,0,0,0,0,0,0,0,0,0,0,3,0,0,0,0,0,2898,3,0,0,0,0,0,0,0
348066-UNIMED DAS ESTÂNCIAS PAULISTAS - OPERADORA,0,0,0,0,0,0,0,0,2,0,1,0,382,0,0,2,0,0,8,0,2,0,0,1,9764,0,0
348082-UNIMED DE ARARAS COOPERATIVA DE TRABALHO M,1,0,0,2,9,5,6,1,12,1,154,17,30,13,0,39,4,0,42,4,21,7,0,14,42593,0,2
348180-SANTA RITA SAUDE S/A.,0,0,0,0,0,0,2,0,0,0,3,21,0,1,0,53692,0,0,2,0,0,3,0,9,42,0,1
348244-UNIMED DE BRUSQUE COOPERATIVA DE TRABALHO,1,0,0,0,3,2,1,1,2,2,6,4,6,7,0,75,8,0,2,0,18,0,0,17670,41,0,0
348261-UNIMED ALTO SÃO FRANCISCO COOPERATIVA DE T,0,1,0,0,2,0,1,2,34,1,5,0,16169,2,1,5,1,0,0,0,8,0,0,5,68,0,1
348295-UNIMED SOROCABA COOPERATIVA DE TRABALHO MÉ,0,3,0,8,64,16,8,14,75,4,44,15,229,22,4,200,15,1,74,17,101,3,2,76,72579,0,8
348406-UNIMED DO RIO GRANDE DO NORTE - FEDERAÇÃO,0,60,0,67,1237,488,0,0,1,2,0,0,0,0,551,0,246,0,213,21334,0,1,0,0,16274,4,49
348520-MEDISANITAS BRASIL ASSISTÊNCIA INTEGRAL À,0,253,4,5,12821,433,152,3019,5284,4392,72,82,301635,3428,194,264,636,341,1217,136,29,92,0,29,13118,197,51
348805-PROMED ASSISTENCIA MEDICA LTDA,0,10,0,1,59,3,344,234,29,163,0,2,121100,1013,0,4,3,1,192,0,1,0,0,12,2088,12,1
348830-PLENA SAÚDE LTDA,0,0,0,0,0,1,2,0,3,0,0,1,2,0,1,1,0,0,0,0,0,0,0,0,45491,0,0
349194-SMV SERVIÇOS MÉDICOS LTDA,0,0,0,0,0,1,0,4,1,0,0,0,36143,0,0,0,0,0,0,0,0,0,0,0,0,0,0
349534-UNIMED SETE LAGOAS COOPERATIVA TRABALHO MÉ,0,0,0,0,2,0,8,10,4,0,0,0,45130,5,0,15,1,0,44,0,6,0,0,3,97,8,3
349682-DOCTOR CLIN OPERADORA DE PLANOS DE SAÚDE L,5,1,0,3,18,11,3,31,26,7,7,11,20,27,10,94,6,1,19,7,78760,6,0,205,76,3,343
349712-UNIMED PONTA GROSSA COOPERATIVA DE TRABALH,0,1,0,0,8,3,7,30,24,0,22,33,226,8,3,56892,23,0,251,2,670,2,0,407,1294,1,2
349755-SMEDSJ - SERVIÇOS MÉDICOS SÃO JOSE LTDA,0,0,0,0,0,0,0,0,0,0,0,0,0,0,0,0,0,0,19111,0,0,0,0,0,0,0,0
350141-PARANÁ CLÍNICAS - PLANOS DE SAÚDE S/A,0,2,0,4,10,1,0,1,6,0,3,0,13,2,4,75363,0,0,57,1,36,1,0,89,270,1,0
350249-H.B. SAÚDE S/A.,1,5,0,4,13,1,8,2,3009,16,43,2142,1089,4,3,183,2,1,14,3,7,6,2,11,90522,0,6
350346-UNIMED CACERES COOPERATIVA DE TRABALHO MÉD,0,0,0,0,6,0,5,1,8,0,13836,18,8,2,0,10,5,0,1,0,3,20,0,2,1503,2,0
350362-COOPERATIVA DE CONSUMO E BENEFÍCIOS SOCIAI,0,3,0,0,2,15,0,0,1,4,1,6,35,0,0,1720,0,0,3,0,4,2,0,35,10,0,2
350371-UNIMED DO SUDOESTE COOPERATIVA DE TRABALHO,0,11,3,0,34198,4,3,17,14,3,0,0,109,4,46,2,168,0,10,2,4,0,0,0,57,5,1
350648-UNIMED REGIÃO DA CAMPANHA/RS - COOPERATIVA,0,0,0,0,0,0,0,0,0,0,1,0,22,0,0,0,0,0,0,1,5291,0,0,8,2,0,0
350699-CENTRO HOSPITALAR ATIBAIA LTDA.,0,0,0,0,3,0,0,0,0,0,0,2,117,0,0,2,0,0,0,0,0,0,0,15,21915,0,0
350729-OPERADORA DE PLANOS PRIVADOS DE ASSISTENCI,0,1,0,0,0,0,0,0,0,0,0,2,0,0,0,14938,0,0,1,0,1,0,0,6,10,0,0
351091-FREE LIFE OPERADORA DE PLANOS DE SAÚDE LTD,0,3,0,0,10,20771,0,0,0,1,0,0,5,1,2,0,49,1,9,0,0,0,0,0,1,0,0
351202-UNIMED DE RIBEIRAO PRETO - COOPERATIVA DE,5,69,0,15,160,23,186,34,363,17,141,98,1665,7,10,408,27,3,192,4,101,124,2,75,113139,2,8
351270-POLI SAUDE OPERADORA DE PLANO DE SAUDE LTD,0,0,0,0,0,0,0,0,0,0,1,0,0,0,0,7680,0,0,0,0,1,0,0,229,0,0,0
351407-UNIMED DE CATANDUVA - COOPERATIVA DE TRABA,3,1,0,1,0,0,1,6,10,0,0,7,78,3,0,20,0,0,2,0,56,0,0,12,38282,0,0
351644-SMH - SOCIEDADE MÉDICO HOSPITALAR LTDA,0,0,0,0,0,0,0,0,0,0,0,0,1,0,0,0,0,0,645,0,0,0,0,0,1,0,0
351776-UNIMED DE REGISTRO COOPERATIVA DE TRABALHO,0,0,0,0,1,0,1,0,7,0,0,0,13,0,0,26,0,0,1,0,2,0,0,4,7987,0,0
351792-UNIMED FOZ DO IGUACU COOPERATIVA TRABALHO,0,1,2,0,4,7,289,6,11,1,29,29,20,5,2,20019,4,1,39,7,68,6,6,152,151,0,0
352179-UNIMED FRONTEIRA NOROESTE/RS - COOPERATIVA,1,0,0,0,4,1,3,2,27,0,19,0,14,0,0,38,19,14,2,9,21843,0,0,57,148,0,6
352314-UNIMED JOÃO MONLEVADE COOPERATIVA DE TRABA,0,0,0,0,0,0,1,5,0,0,0,0,18311,0,0,0,0,0,28,0,0,0,0,3,3,0,0
352331-CAIXA BENEFICENTE DOS FUNCIONARIOS DO BANC,1,115,9,81,253,195,274,133,343,35,93,276,1153,56,135,1220,135,113,1389,237,439,34,0,707,63246,93,11
352501-UNIMED PORTO ALEGRE - COOPERATIVA MÉDICA L,18,133,13,404,1078,489,1953,1198,2370,88,1330,719,5338,872,230,11267,754,78,3753,218,565292,56,23,10644,18648,158,116
352519-UNIMED ALTO JACUÍ/RS - COOPERATIVA DE ASSI,0,0,0,0,0,0,3,0,2,0,21,4,0,0,0,4,0,0,0,0,9092,0,0,7,1,0,0
352543-UNIMED IMPERATRIZ COOPERATIVA DE TRABALHO,0,10,2,2,15,13,7,12,47,24454,6,4,29,1355,8,18,7,26,17,2,2,1,1,5,84,0,552
352586-SISTEMAS E PLANOS DE SAÚDE LTDA.,0,0,0,0,0,0,0,0,0,776,0,1,1,0,0,6,1,0,16,0,1,0,0,0,82461,0,0
352683-UNIMED DE CAMPOS COOPERATIVA DE TRABALHO M,0,7,0,2,27,4,11,509,4,8,7,9,122,14,4,18,18,0,45647,12,25,1,0,19,104,3,0
352861-UNIMED ANDRADAS COOPERATIVA DE TRABALHO MÉ,0,0,0,0,0,0,0,0,0,0,0,0,5929,0,0,0,0,0,0,0,0,0,0,0,60,0,3
352888-NUCLEBRÁS EQUIPAMENTOS PESADOS S/A - NUCLE,0,0,0,0,0,0,0,0,0,0,0,0,2,0,0,0,0,0,2417,0,0,0,0,0,4,0,0
353027-UNIMED DE ITAPETININGA - COOPERATIVA DE TR,0,0,0,0,141,0,0,6,48,0,0,1,78,18,0,18,0,0,10,4,11,0,0,18,18005,0,0
353060-UNIMED PATOS DE MINAS COOPERATIVA TRABALHO,0,12,0,0,9,1,22,1,24,0,26,6,26512,2,0,18,6,0,7,0,3,3,0,4,64,0,0
353264-SANTA CASA DE MISERICORDIA DE SÃO JOSÉ DO,0,0,0,0,0,0,0,0,0,0,0,1,90,0,0,3,0,0,0,0,0,0,0,0,8472,0,0
353353-UNIMED TERESINA - COOPERATIVA DE TRABALHO,3,17,10,6,74,278,93,7,185,7151,6,508,28,252,60,14,129,71683,58,42,20,15,18,19,2877,8,48
353663-UNIMED NORTE DO MATO GROSSO COOPERATIVA DE,0,21,12,1,37,3,8,0,79,72,51157,292,33,141,143,99,9,109,3,8,20,36,8,8,244,0,63
353698-UNIMED REGIÃO DA PRODUÇÃO/RS - COOPERATIVA,0,0,0,0,1,0,0,0,6,1,24,6,0,0,3,64,0,0,1,0,5211,0,0,74,149,0,0
353876-UNIMED PONTAL DO TRIÂNGULO - COOPERATIVA D,0,18,0,0,0,6,2,3,30,0,14,17,11295,2,0,1,5,0,0,0,1,1,0,3,266,0,0
354031-UNIMED SÃO CARLOS - COOPERATIVA DE TRABALH,35,47,9,326,146,442,20,317,68,100,552,181,2712,413,179,904,23,24,60,11,844,115,28,750,89993,92,82
354066-UNIMED UBERABA COOPERATIVA DE TRABALHO MED,5,37,5,1,53,7,37,17,102,8,78,38,64999,26,4,48,10,3,37,6,34,16,0,12,1600,6,14
354279-UNIMED DE LINS - COOPERATIVA DE TRABALHOS,0,1,0,0,0,0,0,0,4,0,1,4,3,0,0,4,0,0,3,0,0,0,0,1,16214,0,0
354295-UNIMED CHAPECÓ - COOPERATIVA DE TRABALHO M,5,7,0,0,101,27,88,70,41,3,17,1535,220,15,128,2428,120,35,262,19,5074,1,1,34664,1548,39,94
354325-UNIMED ARAGUARI COOPERATIVA DE TRABALHO MÉ,0,0,0,0,13,1,20,5,224,3,104,1,14207,4,0,37,3,1,5,0,1,2,0,1,47,0,8
354511-OPERADORA UNIESTE DE PLANOS DE SAÚDE LTDA,0,1,0,8,6,0,10,3,0,0,0,2,9,1,0,1,0,0,15422,0,2,0,0,1,29,3,0
354554-MULTICLINICA SERVICOS DE SAUDE LTDA,0,0,0,0,0,0,1,0,0,0,0,0,0,0,0,1,0,0,2,0,12751,0,0,1,1,0,0
354562-IRMANDADE DA SANTA CASA DE MISERICÓRDIA DE,2,1,0,0,0,0,2,0,0,0,0,8,6,0,0,13,2,0,6,3,6,0,0,6,38915,0,0
354571-PETROBRAS DISTRIBUIDORA S.A.,30,141,9,456,1205,602,668,404,462,217,282,245,1343,424,124,682,591,106,8183,225,768,141,19,261,3251,105,34
354619-UNIMED DE SAO JOSÉ DO RIO PARDO-COOP. DE T,0,0,0,0,0,0,0,0,0,0,0,0,39,0,0,2,0,0,0,0,0,0,0,0,9568,0,0
354627-UNIMED DE CIANORTE - COOPERATIVA DE TRABAL,0,0,0,0,8,1,1,8,10,2,87,36,45,5,0,11001,1,3,3,0,16,9,0,34,210,2,5
354678-UNIMED MACHADO COOPERATIVA DE TRABALHO MED,0,21,0,0,0,0,0,3,0,0,0,0,7622,0,0,0,0,0,0,0,0,0,0,0,7,0,0
354783-UNIMED FRANCA - SOCIEDADE COOPERATIVA DE S,0,4,0,1,3,11,4,1,30,3,21,13,3694,3,1,10,3,4,3,0,1,1,0,11,70705,1,3
354996-UNIMED ALFENAS COOPERATIVA DE TRABALHO MED,0,0,0,0,1,5,2,3,2,0,0,1,9775,0,0,1,0,0,5,1,0,1,0,0,92,0,0
355097-SANTA HELENA ASSISTÊNCIA MÉDICA S/A.,0,2,0,0,10,1,1,12,1,3,1,0,23,3,1,11,3,0,6,1,5,3,0,8,280959,0,0
355135-COOPERATIVA AGROINDUSTRIAL DO ALEGRETE LTD,0,0,0,0,0,0,0,0,0,0,0,0,0,0,0,0,0,0,0,0,619,0,0,0,0,0,0
355151-FUNDAÇÃO COPEL DE PREVIDÊNCIA E ASSISTÊNCI,1,1,3,2,6,6,17,12,5,6,117,37,54,5,10,41362,3,3,27,15,123,2,3,557,138,1,3
355577-UNIMED DE GUARATINGUETA-COOPERATIVA DE TRA,1,0,0,0,0,1,0,3,8,0,1,0,17,5,0,0,0,0,25,0,1,0,0,4,9127,2,0
355593-UNIMED PATROCÍNIO COOPERATIVA DE TRABALHO,0,0,0,1,3,0,16,0,11,0,4,0,8443,2,0,7,1,0,3,0,0,0,0,0,42,0,0
355691-UNIMED DO ESTADO DE SANTA CATARINA FED. ES,9,56,7,54,1321,274,386,208,977,377,2547,8361,6583,137,52,9660,1511,266,1319,74,3188,20,0,99798,9845,16,2521
355721-UNIMED DE SANTOS COOP DE TRAB MEDICO,1,10,0,31,128,72,18,383,129,53,177,29,923,1008,7,491,51,10,2457,78,317,3,0,1062,165469,22,24
355879-CAIXA DE ASSISTÊNCIA DOS ADVOGADOS DO ESTA,0,0,0,0,0,0,2,0,0,0,0,0,3,0,0,0,0,0,4382,0,0,0,0,0,2,0,0
356107-UNIMED CRUZEIRO - COOPERATIVA DE TRABALHO,1,3,2,32,9,34,79,5,15,4,62,1,650,28,3,12,12,0,579,46,14,1,0,8,14966,0,0
356123-UNIMED DO CARIRI COOPERATIVA DE TRABALHO M,0,20,0,3,61,33401,7,15,3,27,5,2,17,68,286,1,1441,39,5,30,20,10,8,1,33,9,10
356417-UNIMED VALE DO SINOS - COOPERATIVA DE ASSI,1,0,0,0,90,68,2,9,99,6,6,11,41,40,3,96,17,7,19,1,65952,6,0,123,261,1,13
356476-CAIXA DE ASSISTÊNCIA DOS EMPREGADOS DOS SI,0,3,3,2,6,6,281,13,15,2,23,24,24,6,1,428,9,0,157,2,212,1,0,18242,99,0,3
356581-UNIMED ITAÚNA COOPERATIVA DE TRABALHO MÉDI,0,0,0,0,4,0,0,1,0,0,1,2,21726,0,0,0,0,0,2,4,0,0,0,0,33,0,0
356891-ELETROSUL CENTRAIS ELÉTRICAS S/A,0,0,0,0,0,0,0,0,0,0,0,9,1,0,0,35,0,0,0,0,19,0,0,3375,1,0,0
357022-UNIMED ERECHIM - COOPERATIVA DE SERVIÇOS D,0,0,0,2,25,13,1,3,23,8,23,20,26,8,0,77,4,1,58,27,22333,6,0,303,96,0,2
357065-UNIMED ITABUNA COOPERATIVA DE TRABALHO MED,0,4,0,8,30498,5,21,33,33,1,0,0,112,13,2,5,7,0,28,2,14,26,0,0,50,16,0
357138-UNIMED CENTRO OESTE PAULISTA - FEDERAÇÃO I,0,0,0,0,0,0,0,0,0,0,0,0,0,0,0,0,0,0,0,0,0,0,0,0,311,0,0
357260-UNIMED NOROESTE/RS - SOCIEDADE COOPERATIVA,0,1,0,2,6,0,6,2,8,4,46,273,16,0,13,67,1,0,5,4,51072,5,0,122,45,3,3
357391-UNIMED VITORIA COOPERATIVA DE TRABALHO MED,78,145,28,130,3695,551,494,289788,625,219,1033,936,4786,1425,336,2120,676,137,13213,357,2909,243,148,2060,5951,223,105
357511-HUMANA ASSISTENCIA MEDICA LTDA,0,2,3,2,38,56,23,0,1,5337,0,0,1,12,0,0,16,45431,9,8,1,0,0,1,13,0,0
357669-DESBAN - FUNDAÇÃO BDMG DE SEGURIDADE SOCIA,0,0,0,0,8,0,4,3,4,0,0,0,1925,0,0,0,0,0,7,0,0,0,0,0,0,0,0
357715-UNIMED DE MINEIROS COOPERATIVA DE TRABALHO,0,1,0,0,0,0,0,0,7190,0,893,147,1,2,2,0,0,0,0,0,1,3,0,1,23,0,1
358053-PLANO SAÚDE SÃO FRANCISCO LTDA.,1,0,0,0,7,68,6,0,5494,1,31,0,1,0,0,0,589,1,0,0,0,0,0,0,3,0,0
358088-UNIMED LESTE PAULISTA COOPERATIVA DE TRABA,1,0,0,0,0,1,1,13,6,0,1,0,674,0,0,7,0,0,4,0,9,0,0,4,42943,0,0
358096-UNIMED APUCARANA COOPERATIVA DE TRABALHO M,2,0,0,1,10,0,0,2,27,6,80,38,15,6,2,18685,0,0,4,1,10,17,0,60,142,0,9
358169-UNIMED DE ARIQUEMES COOPERATIVA DE TRABALH,14,1,0,5,4,0,3,14,4,0,10,9,18,3,7,17,2,1,4,0,7,4352,2,15,30,0,6
358282-UNIMED NORTE DO PARANÁ COOPERATIVA REGIONA,0,0,0,0,1,0,0,5,3,0,10,19,21,0,2,7427,0,0,5,0,2,4,0,15,105,0,3
358410-ASTRA S/A INDUSTRIA E COMERCIO,0,0,0,0,0,0,0,0,0,0,0,0,3,0,0,0,0,0,0,0,2,0,0,0,3205,0,0
358509-SANTA LUZIA ASSISTENCIA MEDICA S.A.,0,1,0,0,0,1,4112,0,541,0,0,0,0,0,0,0,0,0,0,0,0,0,0,0,1,0,0
358711-VEROLIFE SAÚDE S/A,0,0,0,0,0,0,0,0,0,0,0,0,0,0,0,0,0,0,0,0,0,0,0,3143,0,0,0
358754-CAIXA DE ASSISTÊNCIA DOS FUNCIONÁRIOS DO B,204,2,136,660,73,202,234,7,149,1032,405,8,37,7189,8,36,42,70,287,16,71,251,56,28,445,7,823
359017-NOTRE DAME INTERMÉDICA SAÚDE S.A.,39,345,54,371,2572,549,8208,1261,13915,189,187,3094,6738,180,231,6022,2113,134,221600,140,3283,30,1,330,1639878,124,102
359033-UNIMED TRÊS CORAÇÕES COOPERATIVA DE TRABAL,0,14,0,36,0,2,8,11,29,0,5,12,14897,0,4,44,24,3,28,0,13,0,0,11,183,0,0
359122-CAIXA DE ASSISTÊNCIA DOS SERVIDORES FAZEND,0,1,0,1,6,8864,4,0,1,0,1,0,8,1,23,1,32,1,14,6,4,0,0,0,58,1,0
359289-UNIMED VALE DO AÇO COOPERATIVA DE TRABALHO,0,11,0,4,381,7,15,108,898,0,2,16,45126,15,4,4,5,0,83,3,23,2,1,20,165,4930,4
359661-OMINT SERVIÇOS DE SAÚDE LTDA.,34,7,0,112,217,131,690,118,146,62,101,411,614,54,28,423,165,7,6575,33,314,4,5,176,62962,28,18
359777-UNIMED RONDONOPOLIS COOPERATIVA DE TRABALH,0,1,0,1499,27,0,5,0,25,0,43120,622,4,712,0,84,0,0,49,0,11,568,0,6,25,0,0
360147-CAMBORIÚ SAÚDE LTDA.,0,0,0,0,0,0,0,2,0,0,0,0,4807,0,0,46,0,0,1,0,1363,0,0,8503,167,0,0
360244-PLANO DE SAÚDE ANA COSTA LTDA.,0,2,0,0,7,0,1,0,2,8,0,5,8,0,11,11,1,0,1,3,4,1,0,3,96380,3,5
360414-UNIMED NOROESTE FLUMINENSE - COOPERATIVA D,0,0,0,0,1,0,4,33,3,0,2,0,2656,0,6,7,0,0,8637,0,0,0,0,5,48,0,0
360449-UNIMED GRANDE FLORIANÓPOLIS-COOPERATIVA DE,1,30,14,45,118,110,190,119,172,10,159,113,554,38,14,1116,125,6,669,89,1599,75,1,191125,953,54,38
360481-VERA CRUZ ASSOCIAÇÃO DE SAÚDE,0,0,0,0,1,0,4,0,5,0,3,6,1384,2,1,8,2,0,10,1,2,0,0,3,31601,0,11
360767-MEDICAL MEDICINA COOPERATIVA ASSISTENCIAL,0,0,0,0,3,0,0,1,4,0,0,1,133,0,0,5,0,0,6,0,1,0,0,0,76248,0,0
360783-ASSOCIACAO DE SAUDE HOLAMBRA,0,0,0,0,0,1,0,0,2,0,1,0,16,0,0,0,0,0,0,0,0,0,0,0,1049,0,0
361011-SINDIFISCO NACIONAL - SINDICATO NACIONAL D,3,59,4,64,848,138,1214,196,102,12,69,63,910,224,57,356,506,18,4411,63,401,15,0,409,3675,28,8
361461-CAIXA DE ASSISTÊNCIA À SAÚDE DOS EMPREGADO,3,0,0,0,7,0,150,0,12336,0,18,0,26,0,0,3,0,3,0,0,0,0,0,0,7,2,30
361615-UNIMED DE PARANAGUÁ COOPERATIVA DE TRABALH,0,206,0,0,374,0,1,21,172,6,652,108,475,19,5,30271,9,0,11,1,26,3,0,711,416,211,1
361852-UNIAO DE CLINICAS RIO GRANDE LTDA,0,0,0,0,0,0,0,0,0,0,0,0,2,0,0,0,0,0,0,0,10799,0,0,4,1,0,0
361941-UNIMED DE TATUI - COOPERATIVA DE TRABALHO,0,0,0,0,0,0,1,0,0,0,0,0,19,0,0,5,0,0,0,0,0,0,0,0,17446,1,2
362140-UNIMED OESTE DO PARÁ - COOPERATIVA DE TRAB,1,0,29,463,7,13,8,4,13,159,12,6,58,13388,16,11,18,3,663,3,13,5,15,22,1616,2,5
362182-PRONTOMEDICO PLANO DE ASSISTENCIA MEDICA L,0,0,0,0,0,0,0,0,0,0,0,0,1932,0,0,0,0,0,0,0,0,0,0,0,0,0,0
362573-UNIMED DE UBA COOPERATIVA DE TRABALHO MEDI,0,0,0,0,5,0,1,0,0,0,4,0,13352,0,0,1,0,0,13,0,0,0,0,4,9,0,0
362832-UNIMED PLANALTO CENTRAL/RS - COOPERATIVA D,0,0,0,0,1,0,3,0,0,0,22,4,6,0,1,8,0,0,1,0,7310,0,1,49,4,1,0
363111-HOSPITAL DE CARIDADE DE VARGEM GRANDE DO S,0,0,0,0,0,0,0,0,0,0,0,0,1,0,1,0,0,0,0,0,0,0,0,0,3465,0,0
363189-HOSPITAL S.P. LTDA.,0,0,0,0,1,0,0,0,0,0,0,0,0,0,0,1,0,0,0,0,2484,0,0,3,5,0,0
363286-UNIMED DE TAUBATÉ COOPERATIVA DE TRABALHO,0,6,0,0,40,0,6,2,10,1,14,1,113,4,5,10,27,0,50,1,21,0,0,11,16676,0,1
363391-PLANO ASSISTENCIAL SÃO LUCAS LTDA,0,0,1,0,5,0,0,9,0,0,0,0,4041,1,0,0,0,0,0,0,0,0,0,0,0,0,0
363511-IRMANDADE DA SANTA CASA DE MISERICÓRDIA DE,0,0,0,0,0,0,0,0,0,0,0,0,0,0,0,2,3,0,0,0,0,0,0,0,2656,0,0
363685-IRMANDADE NOSSA SENHORA DAS MERCES DE MONT,0,0,0,0,24,0,0,0,0,2,1,0,17473,0,0,0,0,0,1,0,0,0,0,0,2,0,0
363766-CASA DE SAÚDE SÃO BERNARDO S/A,0,0,0,0,189,0,1,83360,0,0,0,0,230,2,1,2,13,1,151,12,24,6,0,7,94,1,0
363774-UNIMED TERESÓPOLIS COOPERATIVA DE TRABALHO,3,1,0,1,2,0,9,10,3,0,1,1,60,3,1,4,0,0,19591,4,4,4,0,10,43,0,1
363855-CAIXA DE ASSISTÊNCIA DOS EMPREGADOS DA SAN,0,0,0,0,0,0,163,0,15156,0,17,0,4,0,0,0,0,0,2,0,0,0,0,0,0,0,13
363944-FEDERAÇÃO INTERFEDERATIVA DAS COOPERATIVAS,0,0,0,0,0,0,0,0,0,0,0,0,3,0,0,0,0,0,0,0,0,0,0,0,0,0,0
364070-UNIMED TRÊS PONTAS - COOPERATIVA DE TRABAL,0,0,0,0,0,0,3,2,32,0,4,0,18637,0,0,51,0,0,14,0,0,0,0,2,32,0,0
364312-UNIMED DE ARARAQUARA - COOP. DE TRAB. MÉDI,0,5,0,0,10,1,4,3,44,3,31,22,315,4,3,57,0,0,40,7,39,1,0,24,88664,11,5
364584-UNIMED DE VOLTA REDONDA COOPERATIVA DE TRA,1,6,0,0,27,11,15,105,18,7,13,11,466,3,7,36,5,1,56480,14,36,0,4,86,355,2,1
364592-LEADER ASSISTÊNCIA MÉDICA E HOSPITALAR LTD,0,0,0,0,0,0,0,15,0,0,2,0,0,0,0,0,0,0,0,0,0,0,0,0,2812,0,0
364860-UNIMED DE TUBARAO - COOPERATIVA DE TRABALH,0,1,3,0,11,13,8,2,2,4,10,1,7,1,55,53,34,0,10,3,187,0,1,34440,58,3,1
365238-UNIMED DE IBITINGA COOPERATIVA DE TRABALHO,0,0,0,0,0,0,0,0,6,0,0,4,8,0,1,3,0,0,1,0,1,0,0,2,12235,0,0
365530-UNIMED DE TUPA COOPERATIVA DE TRABALHO MÉD,0,0,0,0,1,0,3,0,202,0,11,101,10,0,0,41,0,1,1,0,1,0,0,4,9944,0,395
365645-DONA SAÚDE CLINICAS LTDA. ME,0,0,0,0,0,0,0,0,0,0,0,0,2,0,0,0,1,8,785,0,0,0,0,0,0,0,0
365777-UNIMED NOROESTE DO PARANÁ COOP DE TRABALHO,4,0,0,0,2,0,2,4,14,1,107,237,15,1,2,14617,2,0,18,5,10,17,0,55,118,0,1
366064-UNIMED NORTE PIONEIRO - COOPERATIVA DE TRA,3,10,0,1,10,0,9,2,20,0,46,38,34,11,0,11998,0,0,5,0,6,4,0,61,555,0,4
366145-UNIMED SUL DO PARA COOPERATIVA DE TRABALHO,0,3,18,2,59,115,27,315,119,682,57,9,2581,38327,11,23,287,15,2993,11,4,8,0,6,669,20,230
366234-ITAIPU BINACIONAL,0,6,0,1,8,41,50,5,11,1,5,27,112,6,8,7187,11,0,340,2,157,3,1,190,259,0,1
366340-UNIMED DE CAPIVARI -COOPERATIVA DE TRABALH,0,0,0,0,2,0,0,0,0,0,2,1,6,0,0,8,0,0,1,0,5,0,0,0,8954,0,0
366561-BENSAUDE PLANO DE ASSISTENCIA MEDICA HOSPI,1,0,0,0,3,3,3,3,182,1,89,6795,4515,7,0,6,0,3,7,0,5,3,0,2,38582,0,13
366811-UNIMED MACAPA COOPERATIVA DE TRABALHO MÉDI,0,1,2894,2,0,9,4,0,0,9,0,0,5,48,5,4,8,6,122,9,1,2,0,6,6,1,0
366871-PETRÓLEO BRASILEIRO S.A.-PETROBRAS,2,2398,16,4170,43712,5012,597,11442,313,570,21,287,9591,3368,1458,8494,3699,155,106062,11387,6078,13,6,2742,35046,15975,56
367087-UNIMED/RS FEDERAÇÃO DAS COOPERATIVAS MÉDIC,2,28,0,5,870,23,21,96,1083,1436,1471,301,56,18,2,914,82,159,65,10,43971,30,2,2937,613,3,245
367095-SAMEL PLANO DE SAÚDE LTDA,194,0,0,26323,0,0,0,0,0,0,0,0,0,1,0,1,0,0,1,0,5,0,0,0,184,0,0
367397-UNIMED CAMPINA GRANDE - COOPERATIVA DE TRA,3,50,9,36,62,80,49,5,7,7,5,1,10,15,49912,6,586,11,26,220,3,29,19,5,56,25,29
367613-UNIMED CAMPO BELO- COOPERATIVA DE TRABALHO,0,0,0,0,0,0,0,1,2,0,0,0,9130,0,0,1,0,0,0,0,0,0,0,0,1,1,0
367729-SAÚDE QUALITY LTDA.,0,0,0,0,0,0,2,726,0,0,0,0,3756,0,0,0,0,0,217,0,0,0,0,0,3,0,0
368148-UNIMED MURIAÉ COOPERATIVA DE TRABALHO MEDI,0,0,0,0,0,1,4,14,0,0,2,0,11522,0,0,1,0,0,59,4,0,0,0,0,2,0,0
368253-HAPVIDA ASSISTENCIA MEDICA LTDA,1252,83431,48,201254,330675,489839,1229,721,320,83932,7,25,1482,173081,54738,487,419852,10672,2373,151276,163,33,38,57,4429,80273,19
368849-MEDIPLAN ASSISTENCIAL LTDA,0,0,0,0,0,0,0,0,0,0,0,0,0,0,0,0,1,0,1,0,0,0,0,0,85728,0,0
368920-AGROS - INSTITUTO UFV DE SEGURIDADE SOCIAL,0,0,0,0,11,0,40,23,3,0,0,0,16177,0,1,2,3,0,36,0,0,0,0,7,26,1,3
369233-UNIMED PALMEIRA DOS ÍNDIOS COOPERATIVA DE,0,6439,0,0,4,0,1,0,0,1,0,1,1,0,6,2,35,0,0,1,3,0,0,0,5,8,0
369292-UNIMED DE SANTA BÁRBARA D'OESTE E AMERICAN,0,3,0,0,22,4,0,9,11,0,2,12,123,0,12,55,22,0,47,8,52,0,0,79,85829,0,1
369373-PRO SALUTE SERVIÇOS PARA A SAÚDE LTDA.,0,0,0,0,5,0,1,1,0,0,0,0,6,7,0,12,2,0,1,5,50342,0,0,45,4,0,0
369411-UNIMED DE ARACATUBA - COOPERATIVA DE TRABA,0,1,0,0,9,0,0,0,9,6,12,11,20,0,0,13,3,0,15,1,4,0,0,2,28841,0,4
369659-UNIMED DE BAURU COOPERATIVA DE TRABALHO MÉ,12,1,11,32,88,24,16,17,110,78,344,95,260,117,12,154,34,20,849,10,41,27,4,34,94279,6,4
370070-UNIMED DE CASCAVEL COOPERATIVA DE TRABALHO,14,33,4,60,226,176,59,40,313,156,1197,727,392,108,51,81583,185,68,183,71,769,236,15,977,1064,29,73
370088-UNIMED SÃO LOURENÇO COOPERATIVA DE TRABALH,7,0,0,0,1,4,5,3,2,1,2,0,58769,1,0,2,1,0,182,0,0,0,0,3,269,0,0
370321-CAIXA DE ASSISTÊNCIA DOS FUNCIONÁRIOS DA,0,7,0,0,0,0,0,0,0,0,0,0,0,0,2,0,0,0,0,0,0,0,0,0,2,2586,0
370592-FUNASA-SAÚDE - CAIXA DE ASSISTENCIA DOS EM,0,0,0,0,0,2,0,0,0,0,0,0,7,0,6317,1,11,0,4,9,0,0,0,0,2,0,0
370681-UNIMED PATO BRANCO COOPERATIVA DE TRABALHO,2,0,0,8,11,0,14,3,35,7,181,90,127,9,51,29185,30,5,326,42,486,16,0,7154,482,2,21
370975-UNIMED VALE DO JAURU COOPERATIVA DE TRABAL,2,0,0,0,4,0,0,1,5,0,16061,14,14,0,1,21,0,0,1,8,2,813,0,14,57,0,0
371106-UNIMED COSTA OESTE - COOPERATIVA DE TRABAL,0,7,1,16,42,16,11,8,33,5,148,510,110,17,12,48232,31,3,91,3,85,13,1,179,363,6,20
371254-UNIMED REGIONAL MARINGÁ COOP.DE TRABALHO M,17,14,1,18,233,60,78,57,349,29,1415,2107,646,70,24,155536,55,14,85,20,758,239,3,875,3507,17,62
371564-UNIMED FRUTAL COOPERATIVA DE TRABALHO MEDI,0,0,0,0,0,0,0,0,0,0,0,0,5870,0,0,0,0,0,0,0,0,0,0,0,1,0,0
371629-UNIMED NOROESTE CAPIXABA COOPERATIVA DE TR,0,299,0,0,106,241,43,38657,643,103,11,0,4315,533,509,682,1049,83,115,597,50,13,0,0,450,12,37
371777-UNIMED NORTE CAPIXABA- COOPERATIVA DE TRAB,0,6,0,0,116,5,2,30703,15,2,10,2,153,18,5,5,2,0,109,3,7,4,0,31,51,2,4
372561-UNIMED ALTO VALE - COOPERATIVA DE TRABALHO,0,0,0,0,1,1,0,1,1,2,6,8,5,0,1,128,5,6,11,0,93,0,0,11586,24,0,4
372609-NOSSA SAÚDE - OPERADORA PLANOS PRIVADOS DE,0,0,0,0,0,0,1,0,1,2,1,1,0,0,0,38629,0,0,0,0,1,1,0,73,31,0,0
373010-MEMORIAL SAUDE LTDA,0,0,0,0,0,0,1,10,0,0,0,0,38,0,0,0,4,0,101721,0,1,0,0,0,331,0,0
373141-PLAMHEG PLANO DE ASSISTÊNCIA MEDICA E HOSP,0,0,0,0,0,0,15,0,8204,0,0,0,0,2,0,2,0,0,0,0,0,0,0,0,1,0,0
378216-FUNDAÇÃO LIBERTAS DE SEGURIDADE SOCIAL,0,0,0,0,5,1,7,11,1,0,0,0,9069,3,1,0,0,0,13,0,1,0,0,1,8,0,0
379280-SICARD E SICARD ASSISTÊNCIA MÉDICA LTDA,0,0,0,0,0,5836,0,0,0,0,0,0,0,0,0,0,0,0,0,2,0,0,0,0,21,0,0
379956-CARE PLUS MEDICINA ASSISTENCIAL LTDA.,0,16,0,131,405,264,1313,129,338,18,52,21,1137,78,32,907,429,8,7769,61,855,0,0,214,56560,14,16
380661-METRUS INSTITUTO DE SEGURIDADE SOCIAL,0,8,0,0,10,8,7,3,8,3,2,4,67,1,1,26,8,2,12,6,2,0,0,19,27838,3,0
381799-SAO PAULO TRANSPORTE S.A.,0,0,0,0,0,0,0,0,0,0,0,0,0,0,0,1,0,0,0,0,0,0,0,0,4123,0,0
382281-PLANO DE ASSISTÊNCIA MÉDICA MINEIRA LTDA,0,0,0,0,0,0,0,0,0,0,0,1,7419,0,0,0,0,0,0,0,0,0,0,0,2,0,0
382540-ASSOCIAÇÃO BENEFICENTE DOS PROFESSORES PÚB,0,0,0,0,2,0,1,2,0,0,0,0,2,0,1,0,0,0,223239,0,0,0,0,2,1,0,0
382639-ASSOCIAÇÃO DOS FISCAIS DE TRIBUTOS ESTADUA,0,0,0,0,0,0,5,0,0,0,0,0,3,0,0,0,1,0,0,0,679,0,0,8,7,0,0
382876-UNIMED GOIANIA COOPERATIVA DE TRABALHO MÉD,65,41,33,45,490,80,1361,61,311533,162,1158,179,861,839,54,205,82,36,171,37,112,128,20,121,1610,17,4016
383520-UNIMED SANTO ANTONIO DE JESUS COOP TRAB ME,0,0,0,1,3363,1,0,8,0,0,0,0,0,0,0,0,26,0,0,1,0,0,0,0,0,2,0
384356-COOPUS - COOPERATIVA DE USUÁRIOS DO SISTEM,0,0,0,0,0,0,0,0,0,0,0,0,0,0,0,0,0,0,0,0,0,0,0,0,2,0,0
384577-UNIMED UBERLÂNDIA COOPERATIVA REGIONAL TRA,2,4,2,69,322,89,167,71,1633,47,163,103,104794,60,27,308,28,8,364,40,145,12,2,121,1755,11,61
384585-SANAMED - SAÚDE SANTO ANTONIO LTDA,0,0,0,0,0,0,0,0,0,1,0,0,0,0,0,0,0,0,1,1,0,0,0,0,14531,0,0
384704-ASSOCIAÇÃO DOS EMPREGADOS DA COMPANHIA EST,0,31,0,0,7,0,0,0,0,0,0,0,0,0,1,0,0,0,0,0,0,0,0,0,0,2795,0
385255-UNIHOSP SAÚDE S.A.,0,0,0,0,0,0,0,0,0,0,0,0,0,0,0,0,0,0,0,0,0,0,0,0,24127,0,0
385620-UNIMED DE LORENA COOPERATIVA DE TRABALHO M,0,0,8,0,33,0,2,0,44,0,3,0,198,93,0,21,5,4,31,0,0,2,0,16,8349,1,1
385697-CAIXA DE ASSISTÊNCIA DOS FUNCIONÁRIOS DO B,2,1345,5,4,5308,14640,317,136,40,1694,2,5,1932,21,2184,43,4314,1952,263,1923,25,8,0,22,404,1983,20
386588-UNIMED GOVERNADOR VALADARES COOP. DE TRABA,4,0,0,0,47,2,4,319,239,0,12,0,58228,0,0,1,0,0,45,4,8,2,0,0,24,0,16
386596-FEDERAÇAO REGIONAL DAS COOPERATIVAS MÉDICA,0,7,0,0,312,0,40,3,19625,11,63,2,624,3,5,356,7,1,28,2,5,4,0,3,302,0,121
386901-UNIMED LEOPOLDINA COOPERATIVA DE TRABALHO,0,0,0,2,0,1,0,4,0,0,0,0,6503,0,0,0,19,0,25,5,17,0,0,0,3,0,0
387185-ASSOCIAÇÃO DOS AUDITORES FISCAIS DA RECEIT,0,2,0,0,0,0,2,0,1,0,0,0,3,0,0,0,1,0,748,0,0,0,0,0,11,0,0
388092-ASSOCIAÇÃO DOS FUNCIONÁRIOS FISCAIS DO EST,0,4,0,829,0,4,9,0,1,0,0,0,2,1,0,0,0,0,5,0,3,0,0,0,16,0,0
390259-COMSEDER - COOPERATIVA DE ASSISTÊNCIA MÉDI,0,0,0,0,0,0,0,0,0,0,0,0,0,0,667,0,0,0,0,0,0,0,0,0,0,0,0
392391-HOSPITAL MARECHAL CÂNDIDO RONDON LTDA,0,0,0,0,0,0,0,0,0,0,1,29,0,0,0,17328,0,0,0,0,0,0,0,0,0,0,0
392405-COMPANHIA ESPIRITO SANTENSE DE SANEAMENTO,0,0,0,0,4,0,0,3547,0,0,0,0,9,0,0,0,0,0,9,0,0,0,0,1,0,0,0
392804-CENTRO CLÍNICO GAÚCHO LTDA,0,0,0,7,20,4,3,7,3,0,0,5,29,0,0,26,0,0,81,0,164784,0,0,70,389,0,0
393321-UNIMED-RIO COOPERATIVA DE TRABALHO MEDICO,177,1128,174,1053,10095,1285,7797,4457,2149,935,1130,1674,23056,3028,1613,3493,7523,146,592620,2600,9599,664,146,2376,23012,736,239
393533-ASSOCIAÇÃO DO FISCO DE ALAGOAS,0,3353,0,0,33,9,1,0,2,1,0,0,0,0,1,2,118,0,6,0,3,0,0,0,14,16,0
394271-ASSOCIAÇÃO DOS FUNCIONÁRIOS PÚBLICOS DO ES,0,0,0,0,0,0,0,329,0,0,0,0,0,0,0,0,0,0,0,0,0,0,0,0,0,0,0
394734-AMEPLAN ASSISTÊNCIA MÉDICA PLANEJADA LTDA,0,0,0,2,5,2,0,2,12,0,0,3,15,2,5,4,9,0,3,0,13,0,0,3,105735,1,0
395480-ESMALE ASSISTENCIA INTERNACIONAL DE SAUDE,0,20083,0,1,249,4,26,0,0,0,0,0,9,3,22067,2,75,0,11,598,53,0,0,0,15,39,0
400190-SANTO ANDRÉ PLANOS DE ASSISTENCIA MÉDICA L,0,0,0,0,0,0,0,0,2,0,0,0,1,0,1,0,0,0,0,0,0,0,0,65,35855,0,0
400319-HOSPITAL DE CATAGUASES,0,0,0,0,0,0,0,0,0,0,0,0,1774,0,1,0,0,0,1,0,1,0,0,0,1,1,0
400891-EMPRESA BRASILEIRA DE INFRA-ESTRUTURA AERO,186,317,305,1664,1199,564,4692,670,873,399,402,442,2502,1222,748,1644,1683,440,5174,305,1073,128,103,1022,6185,230,284
401081-AMESC - ASSOCIAÇÃO MÉDICA ESPÍRITA CRISTÃ,0,0,0,0,0,0,0,11,0,0,0,0,39,0,0,0,0,0,41218,0,0,0,0,0,33,0,0
401137-IRMANDADE DA SANTA CASA DE MISERICÓRDIA DE,0,0,0,0,0,0,0,0,0,0,0,0,0,0,0,0,0,0,0,0,0,0,0,0,8110,0,0
401196-SAÚDE GOIÂNIA LTDA,0,0,0,0,3,0,2,0,13665,0,1,0,8,0,0,0,3,0,19,0,0,0,0,0,7,0,3
401480-EVANGELICO SAUDE LTDA.,0,0,0,0,0,1,0,0,0,0,0,0,0,0,0,6294,0,0,0,0,0,0,0,15,7,0,0
402001-SISTEMA TOTAL DE SAÚDE LTDA.,0,0,0,0,0,0,0,0,9,3,0,3,4,0,3,0,0,1,1,0,7,0,0,0,12813,0,0
402052-DESENBAHIA - AGÊNCIA DE FOMENTO DO ESTADO,0,0,0,0,49,0,0,0,0,0,0,0,0,0,0,0,0,0,0,0,0,0,0,0,0,0,0
402206-ASSOCIAÇÃO GOIANA DO MINISTÉRIO PÚBLICO,0,0,0,0,0,0,30,1,1291,0,1,1,3,0,0,2,0,0,0,0,0,0,0,0,13,0,4
402478-ORALCLASS ASSISTENCIA MÉDICA E ODONTOLOGIC,0,6041,0,0,0,0,0,0,0,0,0,0,0,0,0,0,0,0,0,0,0,0,0,0,0,0,0
402770-CLIMOL CLINICA MÉDICA E ODONTOLÓGICA SÃO F,0,0,0,0,0,0,0,0,0,0,0,0,0,0,0,0,0,0,1412,0,0,0,0,0,0,0,0
"402834-UNIMED STA RITA, STA ROSA E SÃO SIMÃO COOP",0,0,0,0,0,0,0,0,0,0,0,0,0,0,0,0,0,0,0,0,0,0,0,0,4507,0,0
402851-MULTI SAÚDE - ASSISTÊNCIA MÉDICA E HOSPITA,0,0,0,0,1,0,3,0,15476,0,0,0,2,32,0,0,0,0,0,0,77,0,0,0,205,0,1
402966-BIO SAÚDE SERVIÇOS MÉDICOS LTDA,0,0,0,0,0,0,0,0,0,0,0,0,0,0,0,0,0,0,0,0,0,0,0,0,30307,0,0
403130-CENTRO MÉDICO ESTÂNCIA VELHA LTDA,0,1,0,0,0,0,0,0,0,0,0,0,0,0,0,0,0,0,0,0,2270,0,0,0,0,1,0
403369-PULMONAR CLINICA DE PNEUMOLOGIA E CIRURG T,0,1249,0,0,0,0,0,0,0,0,0,0,0,0,0,0,0,0,0,0,0,0,0,0,0,0,0
403849-PRONTOMED ASSISTÊNCIA MEDICA LTDA.,0,0,0,0,3381,0,0,0,0,0,0,0,0,0,0,0,0,0,590,0,0,0,0,0,0,0,0
403911-VISION MED ASSISTÊNCIA MÉDICA LTDA,14,156,3,14,7966,139,7732,1566,480,49,23,9,14263,147,105,157,2765,10,199142,57,4567,9,1,73,14450,208,4
403920-IRMANDADE DA SANTA CASA DE MISERICÓRDIA DE,0,0,0,0,0,0,0,5,0,0,0,0,0,0,2,73,0,0,0,0,0,0,0,0,26404,0,0
403962-SÃO FRANCISCO ASSISTÊNCIA MÉDICA LTDA,0,0,0,0,6067,0,0,0,0,0,0,0,0,0,0,0,11602,32,0,0,0,0,0,0,0,0,0
404152-GRANJAS QUATRO IRMÃOS AGROPECUÁRIA E COMÉR,0,0,0,0,0,0,0,0,0,0,0,0,0,0,0,0,0,0,0,0,335,0,0,0,0,0,0
404241-COOPERATIVA DOS USUÁRIOS DE SERVIÇOS DE SA,0,8,0,0,1,0,0,0,0,0,0,0,3,3,1,4,4,0,5,0,3888,0,0,16,6,0,0
405051-CIMMAL OPERADORA DE PLANOS DE SAÚDE LTDA.,0,0,0,0,0,0,0,0,0,0,0,0,2,0,0,0,1,0,1155,0,0,0,0,0,0,0,0
406210-VIDA EMPRESARIAL OPERADORA DE PLANOS DE SA,0,0,0,0,0,0,0,0,0,0,0,0,0,0,0,142,0,0,0,0,0,0,0,0,0,0,0
406457-HOSPITAL PADRE JÚLIO MARIA,0,0,0,0,0,0,0,5,0,0,0,0,340,0,0,0,0,0,1,0,0,0,0,0,0,0,0
406554-ASSOCIAÇÃO ADVENTISTA NORTE BRASILEIRA DE,0,0,86,2298,0,1,1,0,0,7,0,0,0,13940,1,3,1,0,17,1,0,0,2,1,9,0,0
406635-ASSOCIACAO POLICIAL DE ASSISTENCIA A SAUDE,0,0,0,0,0,0,0,0,0,0,0,0,0,0,0,0,0,0,0,0,0,0,0,0,3283,0,0
406708-A.P.S ASSISTÊNCIA PERSONALIZADA À SAÚDE LT,0,1,0,0,1,0,0,2,0,0,0,0,13,0,0,2,0,0,2,0,0,0,0,0,13133,0,0
406805-COOPERATIVA DOS USUÁRIOS DE SERVIÇOS DE SA,0,0,0,0,0,0,0,0,0,0,0,0,0,0,0,5,0,0,0,0,2822,0,0,5,0,0,0
406813-ASSOCIAÇÃO POLICIAL DE ASSISTÊNCIA À SAÚDE,0,0,0,0,1,0,0,0,2,0,0,17,0,0,0,9,0,0,0,0,0,0,0,0,1280,0,3
406937-ASSOCIAÇÃO POLICIAL DE ASSISTÊNCIA À SAÚDE,0,0,0,0,0,0,0,0,0,0,0,0,0,0,0,1,0,0,0,0,0,0,0,0,6147,0,1
406945-ASSOCIAÇÃO POLICIAL DE ASSISTÊNCIA À SAÚDE,0,4,0,0,5,2,2,0,0,0,0,4,0,0,0,21,0,0,2,0,0,0,0,10,9534,0,0
407011-GAMA SAUDE LTDA.,0,0,0,0,57,11,95,10,10,2,4,0,51,11,1,73,49,1,2694,3,43,0,0,20,10918,1,1
407097-ASSOCIAÇÃO POLICIAL MILITAR DE ASSISTËNCIA,0,0,0,0,0,0,0,0,0,0,0,0,0,0,0,0,0,0,0,0,0,0,0,0,1128,0,0
407224-SEPACO SAÚDE LTDA,0,0,2,0,0,0,0,0,0,0,0,0,2,0,0,1,0,0,0,3,0,0,0,1,885,0,0
407534-ÔNIX OPERADORA DE PLANOS DE SAÚDE LTDA,0,0,0,0,0,0,0,0,1,0,0,0,57,0,3,0,42,0,10896,0,0,0,0,4,0,0,0
407569-ASSOCIAÇÃO POLICIAL DE ASSISTÊNCIA À SAÚDE,0,0,0,0,0,0,0,0,0,0,0,0,0,0,0,0,0,0,0,0,0,24,0,0,1844,0,0
407704-ARAÇA PLANOS DE SAÚDE LTDA.,0,0,0,0,0,0,0,0,0,0,0,1,0,0,0,0,0,0,0,0,0,0,0,0,3849,0,0
408026-ASSOCIAÇÃO POLICIAL DE ASSISTÊNCIA À SAÚDE,0,0,0,0,4,0,0,0,0,0,0,2,0,0,0,4,0,0,0,0,0,0,0,0,1781,0,2
408034-ASSOCIAÇÃO POLICIAL DE ASSISTÊNCIA À SAÚDE,0,0,0,0,0,0,0,0,0,0,0,0,0,0,0,0,0,0,0,0,0,0,0,0,1604,0,0
408093-ASSOCIAÇÃO POLICIAL DE ASSISTENCIA A SAUDE,0,0,0,0,0,0,0,0,0,0,0,0,0,0,0,0,0,0,0,0,0,0,0,0,1074,0,0
408263-ASSOCIAÇÃO POLICIAL DE ASSISTENCIA À SAUDE,0,2,0,0,0,0,0,0,0,0,0,0,40,0,0,0,0,0,0,0,0,0,0,4,2025,0,0
408522-SANTA CASA DA MISERICÓRDIA DE SÃO JOÃO DEL,0,0,0,0,0,0,0,0,0,0,0,0,3093,0,0,1,0,0,0,0,0,0,0,0,0,0,0
408531-INSTITUTO PORTUGUÊS BRASILEIRO DE ASSISTÊN,0,0,0,0,0,0,0,0,0,0,0,0,0,0,0,0,0,0,61,0,0,0,0,0,0,0,0
408794-ASSOCIAÇÃO POLICIAL DE ASSISTÊNCIA À SAÚDE,0,0,0,0,0,0,0,0,0,0,2,0,2,0,0,0,0,0,0,0,0,0,0,0,6108,0,0
408883-CENTRO MÉDICO FÁTIMA LTDA,0,0,0,0,0,0,0,0,0,0,0,0,0,0,0,0,0,0,5060,0,0,0,0,0,0,0,0
409235-OPERADORA DE PLANOS DE SAÚDE SERRA IMPERIA,0,0,0,0,0,0,0,0,1,0,0,0,6,0,0,0,0,0,1551,0,0,0,0,0,0,0,0
409243-SAUDE PAS - MEDICINA E ODONTO,0,3,0,0,8,0,0,0,1,0,2,0,1,0,0,4,2,0,4,0,23616,0,0,58,3,0,0
409286-G & M ASSESSORIA MEDICA EMPRESARIAL LTDA -,0,0,0,0,0,0,0,0,0,0,0,0,0,0,0,0,0,0,833,0,0,0,0,0,0,0,0
409405-ASSOCIAÇÃO POLICIAL DE ASSISTÊNCIA À SAÚDE,0,0,0,0,0,0,0,0,0,0,0,2,0,0,0,12,0,0,0,0,0,0,0,7,1700,0,0
409413-ASSOCIAÇÃO POLICIAL DE ASSISTÊNCIA A SAÚDE,0,0,0,0,0,0,0,0,0,0,0,0,0,0,0,0,0,0,0,0,0,0,0,0,2784,0,0
409464-AMENO ASSISTÊNCIA MÉDICA S/S LTDA.,0,0,0,0,0,0,0,0,0,0,0,0,1,0,42,0,1,0,1,3,0,0,0,0,8400,0,0
409634-ASSOCIACAO CIVIL PRÓ-SAÚDE DOS SERVIDORES,0,0,0,0,0,0,3,0,0,0,0,0,0,0,0,956,0,0,0,0,0,0,0,6,2,0,0
410047-SAUDE - SISTEMA ASSISTENCIAL UNIFICADO DE,0,0,0,1,3,1,1,2,4,3,0,0,37774,8,0,0,0,0,2,0,0,0,0,0,52,0,6
410110-ASSOCIAÇÃO POLICIAL DE ASSISTÊNCIA A SAÚDE,0,0,0,0,0,0,0,0,0,0,0,0,0,0,0,0,0,0,0,0,0,0,0,0,12039,0,0
410128-ASSOCIAÇÃO POLICIAL DE ASSISTÊNCIA À SAÚDE,0,0,0,0,0,0,0,0,0,0,0,0,2,0,0,1,0,0,0,0,2,0,0,0,7441,0,0
410179-EVERCROSS PLANEJAMENTO DE ASSISTÊNCIA MÉDI,0,0,0,0,63,0,0,0,0,0,0,0,356,0,0,0,0,0,2888,0,0,0,0,0,107,0,0
410292-FUNDACAO LEONOR DE BARROS CAMARGO,0,0,0,0,0,0,0,0,0,0,0,0,2,0,0,1,0,1,0,0,1,0,0,0,21466,0,0
410322-EMPRESA GERENCIAL DE PROJETOS NAVAIS,0,0,0,0,0,6,1,7,0,12,2,0,4,8,0,1,4,0,2207,0,2,0,0,2,2555,0,0
410471-GREEN LIFE SAÚDE ASSISTÊNCIA MÉDICA LTDA.,0,0,0,0,6,0,0,0,2,4,0,0,1,0,8,0,0,0,6,2,0,0,0,0,15644,0,0
410608-ASSOCIACAO POLICIAL DE ASSISTENCIA A SAUDE,0,0,0,0,0,0,0,0,0,0,0,0,0,0,0,0,0,0,0,0,0,2,0,0,4092,0,0
410624-CONFIANÇA ASSISTÊNCIA MÉDICO HOSPITALAR LT,0,0,0,0,0,0,0,0,0,13,0,0,11673,0,0,0,0,0,0,0,0,0,0,0,0,0,0
410632-PROMED ASSISTÊNCIA MÉDICA LTDA,0,0,0,0,5,0,64,0,44715,0,9,6,184,6,0,0,1,0,1,0,5,0,0,0,1882,0,50
410888-FILOSANITAS SAUDE LTDA,0,0,0,0,0,0,0,0,0,1,0,0,3,0,0,0,0,0,10,0,0,0,0,0,4586,0,0
411248-ASSOCIAÇÃO POLICIAL DE ASSISTÊNCIA À SAÚDE,4,0,0,0,0,0,0,0,0,0,2,9,0,0,0,2,0,0,0,0,0,0,0,0,2206,0,0
411256-PLANO HOSPITAL SAMARITANO LTDA,0,0,0,0,5,0,0,0,1,4,0,0,89,0,0,20,0,5,11,5,1,0,0,0,59735,1,0
411582-PLANO DE SAUDE ASES LTDA.,0,0,0,0,12,0,1,28,0,6,0,3,31,1,1,22,9,0,18117,0,0,0,0,0,35,10,0
411752-ASSOCIAÇÃO ASSISTENCIAL DE SAÚDE SUPLEMENT,0,0,0,0,0,0,0,0,0,0,0,0,1,0,0,0,0,0,0,0,0,0,0,0,49347,0,0
411809-SOCIEDADE DE ASSISTÊNCIA MÉDICA - SAMEISA,0,0,0,0,0,0,0,0,0,0,0,0,0,0,0,0,0,0,5,0,2641,0,0,33,0,3,0
411868-EXTREMAMEDIC PLANOS DE SAÚDE LTDA,0,4,0,0,0,0,0,0,3,1,0,0,5952,1,0,0,0,2,0,0,0,0,0,2,829,0,0
412015-MH VIDA - OPERADORA DE PLANOS DE SAÚDE - E,0,0,0,0,0,0,0,0,0,0,0,0,0,0,0,0,0,0,3294,0,1,0,0,0,0,0,0
412058-SBC SAÚDE LTDA.,0,0,0,1,15,4,4,0,2,0,0,21,37,0,0,127,8,0,22,1,0,0,0,19,5473,0,4
412228-POLICON ASSISTENCIA MÉDICA LTDA - EPP,0,0,0,0,0,0,0,0,0,0,0,0,0,0,0,0,0,0,2502,0,0,0,0,0,0,0,0
412252-TUIUIU ADMINISTRADORES DE PLANO DE SAUDE L,0,0,0,0,0,0,0,0,0,0,0,0,0,0,0,0,0,0,10926,0,0,0,0,0,0,0,0
412295-CAIXA DE ASSISTÊNCIA À SAUDE DOS EMPREGADO,0,360,0,0,798,11,1495,6,35,52,0,1,562,1,20,2,616,215,13,10,1,0,0,3,8,579,0
412457-ASSOCIAÇÃO CASA DO VIAJANTE,0,0,0,0,0,0,0,0,0,0,0,0,0,0,0,0,0,0,1013,0,0,0,0,0,0,0,0
412490-LÍDER COMÉRCIO E INDÚSTRIA LTDA.,0,0,0,68,0,0,0,0,0,0,0,0,0,8237,0,0,0,0,0,0,0,0,0,0,0,0,0
412538-UNIHOSP - SERVIÇOS DE SAÚDE LTDA.,0,0,0,0,0,11,0,0,0,37519,0,2,6,5,0,3,0,3,0,0,0,0,0,0,0,1,39
412635-ASSOCIAÇÃO VALEPARAIBANA DE ASSISTÊNCIA MÉ,0,3,0,0,0,0,0,0,0,0,0,0,3,0,13,0,0,0,0,0,0,0,0,0,9843,0,0
412759-TERRAMAR ADMINISTRADORA DE PLANO DE SAUDE,0,76,33,0,43898,822,0,5,0,1,0,0,302,32,45,49,172,0,107,42,18,6,0,20,2629,257,0
413160-GS PLANO GLOBAL DE SAÚDE LTDA,1,0,0,0,0,0,0,1,0,0,0,0,1,0,0,0,0,0,14534,0,1,0,0,0,13,0,0
413194-SANTA RITA SISTEMA DE SAUDE LTDA,0,0,0,0,0,0,0,0,0,0,0,0,0,0,0,0,0,0,0,0,0,0,0,0,24294,0,0
413267-PREVENT SENIOR CORPORATE OPERADORA DE SAÚD,0,0,0,0,0,0,0,0,2,0,0,0,0,0,0,1,0,0,0,1,0,0,0,0,241,0,0
413275-CLINICA SÃO JOSÉ SAUDE LTDA.,0,0,0,0,0,0,1,0,0,0,0,0,12,0,0,0,0,0,0,0,0,0,0,0,42955,0,0
413291-CGO SAÚDE - OPERADORA DE PLANOS DE SAÚDE L,0,0,0,0,0,0,0,0,0,0,0,0,4,0,0,0,0,0,12374,0,1,0,0,0,0,0,0
413330-AMEP FREGUESIA OPERADORA DE PLANO DE SAUDE,0,0,0,0,0,0,0,0,0,0,0,0,0,0,0,0,0,0,22726,0,0,0,0,0,0,0,0
413372-SOCIEDADE PORTUGUESA DE BENEFICÊNCIA,0,0,0,0,0,0,1,0,0,0,0,0,0,0,0,1,0,0,3,0,6720,0,0,4,4,0,0
413402-UNILIFE SAÚDE LTDA. - EM LIQUIDAÇÃO EXTRAJ,0,6435,0,0,392,3,0,0,0,0,0,0,16,0,21,0,11152,0,0,0,0,0,0,0,0,0,0
413518-CAIXA DE ASSISTÊNCIA DO SINDFISCO - CASSIN,0,14,0,0,19,0,0,0,0,0,0,0,0,0,1,0,6,0,1,0,0,0,0,1,3,2245,0
413534-CAIXA DE ASSISTENCIA DOS SERVIDORES DO EST,2,2,0,0,1,2,7,0,14,0,78,260699,12,0,0,61,0,0,5,3,4,7,0,31,287,0,3
413551-PLAMEDH - PLANO DE ASSISTÊNCIA MÉDICO-HOSP,0,0,0,0,2,0,0,0,0,1,0,0,2892,0,0,0,0,0,1,0,0,0,0,0,4,0,0
413721-SOCIEDADE BENEFICENTE DEZOITO DE JULHO,0,0,0,0,1,0,0,3,1,1,0,0,4106,1136,0,0,0,0,1759,4,0,0,1,0,0,0,0
413755-ECONLIFE SAUDE LTDA,0,0,0,0,0,0,0,0,0,0,0,0,0,0,0,0,0,0,0,0,0,0,0,0,47,0,0
414026-CAIXA BENEFICENTE DOS FUNCIONÁRIOS DO GRUP,0,0,0,0,0,0,0,0,0,0,0,0,0,0,0,1582,0,0,0,0,0,0,0,0,0,0,0
414131-RN METROPOLITAN LTDA,0,0,0,0,0,0,81,0,13,3,10,0,57202,0,0,0,3,3,8,4,0,0,0,0,485,0,0
414212-ASSOCIAÇÃO POLICIAL DE ASSISTÊNCIA À SAÚDE,0,0,0,0,0,0,0,1,14,0,9,27,3,0,0,2,0,0,0,0,0,0,0,1,4799,0,0
414247-VOLVO DO BRASIL VEÍCULOS LTDA.,0,0,0,0,4,2,0,3,7,3,3,0,20,1,0,7931,14,2,11,0,18,0,0,22,80,0,0
414298-ECOLE SERVIÇOS MÉDICOS LTDA,0,0,0,0,0,0,1,0,0,0,0,0,1,0,0,0,0,0,0,0,0,0,0,0,55365,0,0
414310-SAÚDE BRB - CAIXA DE ASSISTÊNCIA,0,0,0,0,12,11,8572,11,799,1,20,11,112,0,7,9,5,3,70,7,2,0,0,6,46,0,2
414352-HBC SAÚDE LTDA.,0,0,0,0,0,0,0,0,0,0,0,0,400,0,0,0,0,0,1,0,0,0,0,0,19025,0,0
414450-JARDIM AMÉRICA SAÚDE LTDA.,0,0,0,0,1,85,136,0,85492,0,30,0,20,0,0,3,1,0,0,0,0,0,0,0,542,0,18
414492-LIFE EMPRESARIAL SAÚDE LTDA.,157,328,168,500,1855,965,968,491,728,531,382,381,1624,808,359,910,768,356,5335,360,986,241,109,642,13117,281,261
414573-UNIMED CENTRO PAULISTA - FEDERAÇÃO INTRAFE,0,0,0,0,0,0,0,3,0,0,0,0,10,0,0,8,0,0,3,0,0,0,0,0,963,0,0
414581-UNIÃO MÉDICA - COOPERATIVA DE TRABALHO MÉD,0,0,0,0,27392,0,1,0,0,0,0,0,9,0,1,1,0,0,0,0,0,0,0,0,2,1,0
414689-FUNDO DE ASSISTÊNCIA À SAÚDE DOS FUNCIONÁR,0,0,0,0,0,1087,0,0,0,0,0,0,0,0,0,0,0,0,0,0,0,0,0,0,0,0,2
414905-VITA ASSISTÊNCIA A SAÚDE LTDA.,0,0,0,0,0,0,0,0,0,0,0,0,2623,0,0,0,0,0,9,0,0,0,0,0,0,0,0
414913-ASSOCIAÇÃO DE ASSISTÊNCIA À SAÚDE DOS SERV,0,0,0,0,0,0,0,0,0,0,0,0,0,0,0,0,0,0,0,0,0,0,0,3894,0,0,0
414930-SAÚDE SANTA TEREZA LTDA.,0,0,0,0,0,0,0,0,0,0,0,0,5,0,0,0,1,0,0,0,0,0,0,1,18433,0,0
415014-UNIMED DE ITATIBA COOPERATIVA DE TRABALHO,0,1,0,0,6,3,0,4,5,0,2,2,24,0,10,24,3,0,10,0,8,0,0,47,17194,0,0
415049-ASSOCIAÇÃO BENEFICENTE FNV,0,0,0,0,0,0,0,0,0,0,0,0,79,0,0,0,0,0,5,0,439,0,0,0,8453,0,0
415081-PORTO DIAS SAUDE LTDA.,0,0,0,0,0,0,0,0,0,0,0,0,0,850,0,0,0,0,0,0,0,0,0,0,0,0,0
415111-BIOVIDA SAÚDE LTDA.,0,0,0,0,0,0,0,0,0,0,0,0,0,0,0,0,0,0,0,0,0,0,0,0,137275,0,0
415413-CLINIPREV SAUDE LTDA,0,0,0,0,0,0,0,0,0,0,0,0,20,0,0,483,0,0,0,0,0,0,0,0,0,0,0
415693-POLICLIN SAÚDE S/A.,0,0,0,0,5,0,4,0,1,0,0,5,36,0,0,4,0,1,9,0,0,0,0,0,45261,0,0
415774-CABERJ INTEGRAL SAÚDE S.A,0,0,0,1,9,4,14,691,4,0,0,0,20,2,17,11,38,0,24164,0,7,3,2,3,129,2,4
415847-ASSISTÊNCIA MÉDICO-HOSPITALAR LTDA.,0,0,0,0,0,1,0,0,0,1401,0,0,2,0,0,0,6,20320,2,0,0,0,0,0,2,0,0
415898-SOCIEDADE BENECAP DE ASSISTÊNCIA À SAÚDE,0,0,0,0,0,0,776,0,37,0,0,0,0,0,0,0,0,0,0,0,0,0,0,0,0,0,0
415901-SAME-SERVIÇO DE ASSISTÊNCIA MÉDICA EMPRESA,0,0,0,0,0,0,0,0,0,4812,0,0,1,14,0,0,0,4,0,0,0,0,0,0,0,0,0
415910-CENTRO DE ENDOCRINOLOGIA DE JUNDIAÍ S/S LT,0,0,0,0,0,0,0,0,0,0,0,0,0,0,0,0,0,0,0,0,0,0,0,0,753,0,0
415944-CLÍNICA SÃO GABRIEL S/S LTDA,0,0,0,0,0,0,0,0,0,0,0,0,0,0,0,0,0,0,0,0,0,0,0,0,1023,0,0
416070-ARCELORMITTAL BRASIL S/A,0,0,0,0,0,0,0,14909,1,1,0,0,29,0,0,0,0,0,14,0,2,0,0,15,27,0,0
416118-DANA INDUSTRIAS LTDA.,0,0,0,0,0,0,0,0,0,0,0,0,0,0,0,0,3,0,0,0,3590,0,0,0,2,0,0
416282-E.X.M BRASIL SAÚDE LTDA-ME,0,0,0,0,3846,62,0,122,0,0,0,0,2,1,0,0,9,0,30,0,0,0,0,1177,10,450,0
416398-HOSPITAIS E CLÍNICAS DO PIAUÍ S/S LTDA,0,0,0,0,0,0,2,0,0,5985,0,0,0,1,0,0,0,20371,0,0,0,0,0,0,31,0,0
416401-CAIXA DE ASSISTÊNCIA  DOS EMPREGADOS DA EM,351,126,262,677,744,950,4888,19,1074,168,250,1347,1738,1106,616,1299,1050,756,1087,88,2449,338,258,638,1679,534,195
416428-SUL AMÉRICA SERVIÇOS DE SAÚDE S.A.,1,134,182,416,7492,241,3602,189,588,358,175,88,6676,4585,226,6219,6066,49,34776,128,6843,518,0,1448,268126,87,30
416495-MATÃO CLINICAS & AMHMA SAÚDE LTDA,0,0,0,0,0,0,0,0,0,0,0,1,3,0,0,0,0,0,0,0,0,0,0,0,14538,0,0
416509-COMPANHIA DOCAS DO ESPIRITO SANTO - CODESA,0,0,0,0,0,0,4,1416,0,0,0,0,0,0,0,0,0,0,0,0,0,0,0,0,0,0,0
416568-ASSOCIAÇÃO DE ASSISTÊNCIA À SAÚDE DOS EMPR,0,0,0,0,6,0,4,15,2,0,2,0,43580,0,0,1,0,0,7,0,0,0,0,3,18,0,0
416576-UNIMED PIAUI FEDERAÇÃO DAS COOPERATIVAS DE,0,1,0,0,8,103,11,2,7,183,0,0,17,2,29,0,24,8387,4,7,4,1,0,3,13,1,1
416584-ASSOCIAÇÃO FUNDO DE PROTEÇÃO À SAÚDE,0,0,0,0,0,0,0,0,0,0,0,1124,0,0,0,17117,0,0,0,0,0,0,0,538,7,0,0
416657-CAIXA ASSISTENCIAL DOS AUDITORES FISCAIS D,0,0,0,0,0,0,0,0,0,0,0,0,393,0,0,0,0,0,0,0,0,0,0,0,5,0,0
416690-ASSOCIAÇÃO DE ASSISTÊNCIA À SAÚDE DA AMAGI,0,1,0,0,10,0,5,27,3,0,0,0,6878,0,0,0,0,0,77,4,0,0,0,5,114,0,4
416703-MINERAÇÃO CARAÍBA S/A,0,0,0,0,3530,0,0,0,0,0,0,0,0,0,0,0,14,0,0,0,0,0,0,0,0,0,0
416711-ITAGUAÍ SAÚDE LTDA.,0,0,0,0,0,0,0,0,0,0,0,0,0,0,0,0,0,0,4259,0,0,0,0,0,0,0,0
416738-OESTE SAÚDE ASSISTÊNCIA A SAÚDE SUPLEMENTA,0,0,0,0,0,0,2,0,1,0,2,1283,1,0,4,16,0,0,0,0,0,0,0,1,14787,0,0
416819-GKN DO BRASIL LTDA,0,0,0,0,0,0,0,0,0,0,0,0,0,0,0,0,0,0,0,0,4513,0,0,0,1,0,0
416894-AMAZONAS DISTRIBUIDORA DE ENERGIA S/A,0,1,0,9402,2,0,4,0,0,1,0,0,2,2,0,0,3,0,6,0,1,1,24,1,0,0,0
416983-BOA VISTA ENERGIA S/A,0,0,0,0,0,0,0,0,0,0,0,0,0,0,0,0,0,0,0,0,0,0,1055,0,0,0,0
417092-CENTRAL OPERADORA DE PLANOS DE SAÚDE NORTE,0,0,0,0,0,0,0,0,0,0,0,0,0,0,9,0,0,0,1026,0,0,0,0,0,464,0,0
417211-ASSOCIAÇÃO MINEIRA DE ASSISTÊNCIA À SAÚDE,0,0,0,0,1,0,4,8,0,0,0,1,4620,0,0,0,0,0,31,0,0,0,0,0,35,0,0
417238-BRF S/A,0,26,0,0,20,9,4,4,4402,148,10422,15,7532,468,41,20205,101,110,7,3,12541,33,0,41506,22,1,10
417297-ELOSAÚDE - ASSOCIAÇÃO DE ASSISTÊNCIA À SAÚ,0,2,0,2,3,45,17,9,80,81,18,248,62,1,2,656,3,4,116,1,1517,2,0,6181,75,5,37
417475-PRONTO SOCORRO CONDE DE MOREIRA LIMA,0,0,0,0,0,0,1,0,0,0,0,0,0,0,0,0,0,0,0,0,0,0,0,0,58,0,0
417491-PORTOMED - PORTO SEGURO SERVIÇOS DE SAUDE,0,0,0,2,19,5,82,4,5,9,0,0,42,0,0,15,18,0,149,3,38,0,0,16,27303,4,4
417505-CEMIG SAÚDE,0,4,0,6,49,3,90,166,279,0,5,26,59370,12,10,14,18,0,130,2,7,7,0,34,298,18,2
417530-ASSOCIAÇÃO DE SAÚDE PORTUGUESA DE BENEFICÊ,1,0,0,3,3,0,1,0,3,0,0,2,31,0,0,6,0,0,3,0,2,0,0,3,60963,0,1
417548-CAIXA DE ASSISTÊNCIA OSWALDO CRUZ,0,11,0,76,461,43,265,38,15,13,3,18,459,8,28,102,588,7,12763,10,17,22,4,34,101,4,11
417599-ASSOCIAÇAO DOS FUNCIONARIOS PUBLICOS DO ES,0,0,0,0,0,0,4,0,0,0,2,1,1,1,0,0,0,0,11,0,30247,0,0,82,2,0,1
417661-CAIXA DE ASSISTÊNCIA À SAÚDE DO SINDICATO,0,26,0,1,11,6,6,0,1,0,0,0,1,3,38,11,4305,0,13,0,6,0,0,0,34,3,0
417823-PREMIUM SAÚDE EIRELI,0,0,0,0,0,0,5780,7,89,0,0,0,26885,0,0,0,0,0,1,0,0,0,0,0,1,0,0
417947-ASSOCIAÇÃO DA SANTA CASA SAÚDE DE RIBEIRÃO,0,0,0,0,0,0,3,1,4,0,0,0,28,0,0,3,0,0,1,0,0,0,0,2,25160,0,0
417955-ASSOCIAÇÃO DE ASSISTÊNCIA MÉDICO HOSPITALA,0,0,0,0,1,4,8,0,2,0,7,19,4,0,0,4269,0,0,9,0,3,0,0,59,37,0,15
418021-ASSOCIAÇÃO DO PLANO DE SAÚDE DA SANTA CASA,0,0,0,0,4,6,138,0,3,0,0,4,35,0,5,8,4,0,7,1,1,0,0,12,80752,2,0
418072-CAIXA SEGURADORA ESPECIALIZADA EM SAÚDE S/,16,44,12,86,1918,240,15680,382,1474,60,62,57,1366,541,68,418,856,54,5867,107,1140,39,7,201,49724,51,22
418129-FUNDO DE ASSISTÊNCIA MÉDICO-HOSPITALAR DO,0,1,0,0,1,0,1,1,0,0,2,566,5,0,0,2,0,0,0,0,1,0,0,5,13,0,0
418137-UNIX - SAÚDE LTDA,0,0,0,0,12099,0,0,0,0,0,0,0,6,0,0,0,0,0,0,0,0,0,0,0,0,0,0
418170-QUALLITY SAÚDE ASSISTÊNCIA MÉDICA AMBULATO,0,0,0,0,18,15,28851,0,1745,0,0,0,4,0,0,71,0,0,121,0,0,0,0,0,4,0,0
418218-ASSOCIAÇÃO SAÚDE RURAL ALEGRETE,0,0,0,0,0,0,0,0,0,0,0,0,0,0,0,0,0,0,0,0,628,0,0,0,0,0,0
418226-OPLAN SAÚDE OPERADORA DE PLANO DE SAÚDE LT,0,0,0,0,0,0,0,2,0,0,0,0,8,0,0,0,1,0,2401,0,0,0,0,0,1,0,0
418285-FUNDAÇÃO FIAT SAÚDE E BEM ESTAR,0,4,3,2,31,1,7,7,3,2,0,1,46053,2,13,97,46,0,58,0,21,0,0,4,334,0,0
418374-CAIXA DE ASSISTÊNCIA DO SETOR ELÉTRICO - E,629,1,2862,162,6,9,6436,6,147,1718,879,2,76,3038,6,15,22,4,122,6,4,1006,228,16,120,0,251
418501-FUNDAÇÃO PLAMHUV - PLANO MÉDICO HOSPITALAR,0,0,0,0,0,0,1,0,3,0,2,0,5604,0,0,0,0,0,2,0,0,0,0,0,7,0,0
418587-AMHA SAUDE S/A,0,0,0,0,3,0,1,0,0,1,0,0,43,4,8,1,0,0,3,2,0,0,0,9,20323,0,0
418617-ASSOCIAÇÃO PARANAENSE DE ASSISTÊNCIA À SAU,0,0,0,0,1,0,3,0,5,0,5,5,10,0,0,2679,0,0,11,0,9,2,0,28,53,1,0
418650-MÚTUA DOS MAGISTRADOS DO ESTADO DO RIO DE,0,0,0,0,1,1,5,9,1,0,0,2,48,0,0,1,2,0,5209,0,4,1,0,0,23,0,0
418676-CB SAÚDE ADMINISTRAÇÃO EM SAUDE SUPLEMENTA,0,0,0,0,0,0,0,0,0,0,0,0,0,0,0,0,0,0,0,0,0,0,0,0,7509,0,0
418731-ASSOCIAÇÃO DE SAÚDE DOS FORNECEDORES DE CA,0,0,0,0,0,0,0,0,0,0,0,0,27,0,0,0,0,0,0,0,1,0,0,2,16420,0,0
418749-CEDPLAN SAÚDE LTDA ME,0,0,0,0,0,0,0,0,0,0,0,0,4508,0,0,0,0,0,0,0,0,0,0,0,0,0,0
418781-SAUDE CASSEB ASSISTENCIA MEDICA LTDA,0,0,0,0,2956,0,4,0,0,0,0,0,70,0,0,0,0,6,0,0,0,0,0,3,0,0,0
418803-ASSOCIAÇÃO SANTA CASA SAÚDE DE ARAÇATUBA,0,0,0,0,0,1,7,0,2,0,1,23,1,0,0,9,0,0,1,0,0,0,0,0,15310,0,0
418820-CAIXA DE ASSISTÊNCIA AOS MEMBROS DA DEFENS,0,1,0,0,5,0,8,1,2,0,0,0,15,0,0,0,0,0,2533,0,0,0,0,2,11,2,0
418854-ASSOCIAÇÃO SANTA CASA SAÚDE DE SOROCABA,11,0,1,0,0,4,1,0,0,0,0,0,4,0,0,3,1,0,2,0,0,0,0,1,13164,0,0
418862-RBS PARTICIPAÇÕES S/A,0,0,0,0,0,0,0,0,0,0,1,0,0,0,0,0,0,0,0,0,2381,0,0,8,0,0,0
418919-ASSOCIAÇÃO SAÚDE SÃO JOSÉ,0,0,0,0,0,0,0,0,3,0,0,0,0,0,1,0,0,0,0,0,18,0,0,11952,1,0,0
418951-MAPFRE SAÚDE LTDA,0,1,2,1,56,139,100,16,37,26,12,41,124,8,1,134,130,1,1264,17,38,1,1,262,7403,6,0
419010-INSTITUTO CURITIBA DE SAÚDE,0,0,0,0,3,3,2,2,4,0,2,2,10,0,5,75535,1,0,3,2,10,0,0,128,24,2,0
419052-AMAZÔNIA PLANOS DE SAÚDE LTDA,0,0,20,0,0,1,1,0,0,4,0,0,2,8269,0,0,2,0,0,0,0,0,0,0,4,0,0
419133-POSTAL SAÚDE CAIXA DE ASSISTÊNCIA E SAÚDE,1295,4694,1082,4403,19580,10805,19265,7389,13358,7136,5464,5713,42568,8778,5505,21480,12686,5968,43171,5309,25754,3118,779,12907,110900,3224,2816
419141-ASSOCIAÇÃO SÃO FRANCISCO VIDA,0,1,0,0,0,0,0,10,0,0,0,0,25,0,0,2,0,0,5,0,22,0,0,0,21499,0,0
419150-ASSOCIAÇÃO MAIS SAÚDE SANTA CASA DE SÃO JO,0,4,0,0,0,0,0,0,1,0,0,0,406,0,0,4,0,1,1,0,0,0,0,0,17437,2,0
419168-COOPUS PLANOS DE SAÚDE LTDA,0,0,0,0,0,0,0,0,0,0,0,0,1,0,0,0,0,0,0,0,0,0,0,0,24570,0,0
"419206-VALEC - ENGENHARIA, CONSTRUÇÕES E FERROVIA",0,0,0,0,0,0,108,0,0,0,0,0,0,0,0,0,0,1,0,0,0,0,0,0,0,0,0
419249-ASSOCIAÇÃO SANTA CASA SAÚDE DE SÃO JOSÉ DO,0,11,0,0,1,2,0,0,2,0,0,9,31,0,0,0,0,0,6,0,1,1,0,1,41033,0,0
419273-CAIXA DE ASSISTENCIA A SAUDE DOS ESTIVADOR,0,0,0,0,0,0,0,0,0,0,0,0,0,0,0,3183,0,0,0,0,0,0,0,0,0,0,0
419311-BIOLIFE SAUDE OPERADORA DE PLANOS DE SAUDE,0,0,0,0,0,0,0,0,0,0,0,0,0,0,0,0,0,0,0,0,0,0,0,0,636,0,0
419320-MEDICAL RIO ASSISTÊNCIA MÉDICA LTDA,0,0,0,0,0,0,0,0,0,0,0,0,0,0,0,0,0,0,10581,0,0,0,0,0,0,0,0
419338-SANTA CASA DE MISERICORDIA DE PONTA GROSSA,0,0,0,0,2,0,0,1,0,0,0,7,7,0,0,18245,1,0,1,0,3,0,0,5,40,0,0
419362-HOSPITAL BOM SAMARITANO S/S LTDA,0,0,0,0,0,0,1819,0,0,0,0,0,0,0,0,0,0,0,0,0,0,0,0,0,101,0,0
419427-INSTITUIÇÃO BENEFICENTE CEL MASSOT - IBCM,0,0,0,0,0,1,5,0,0,0,1,4,0,0,0,0,0,0,2,0,38057,0,0,67,0,1,0
419486-PLADISA PLANOS DE SAÚDE LTDA,0,0,0,0,0,0,0,0,0,0,75,0,0,0,0,1,0,0,3,0,0,0,0,6771,1,0,0
419516-MAIS SAUDE S/A,0,0,0,0,0,0,0,1,0,0,0,0,0,0,0,0,0,0,0,0,0,0,0,0,0,0,0
419591-ASSOCIAÇÃO DOS SERVIDORES PÚBLICOS DA ADMI,0,0,0,8,0,2,0,0,1,0,0,0,0,581,0,0,0,0,0,0,0,0,0,0,0,0,0
419699-OPERADORA DE PLANOS PRIVADOS DE SAÚDE - SA,0,0,0,0,0,0,0,0,0,0,0,348,0,0,0,0,0,0,0,0,0,0,0,0,0,0,0
419753-MEDGOLD ASSISTENCIA MEDICA LTDA - ME,0,0,0,0,0,0,0,0,0,0,0,0,1342,0,0,0,0,0,0,0,0,0,0,0,1,0,0
419834-HALSA OPERADORA DE MEDICINA DE GRUPO LTDA,0,0,0,0,3174,4,0,1,3,0,2,0,0,0,0,0,0,0,0,0,0,0,0,0,8,0,0
419851-CAIXA DE ASSISTÊNCIA À SAÚDE DOS TRABALHAD,0,0,0,0,0,0,0,0,0,0,0,0,0,0,0,0,0,0,1,0,1,0,0,8113,0,0,0
419958-ASSOCIAÇÃO PLANO DE SAÚDE SANTA CASA DE VA,0,0,0,0,1,0,0,0,0,0,0,1,3,0,0,0,0,0,0,0,0,0,0,0,8192,0,0
419974-IRMANDADE SANTA ISABEL DE BARRA MANSA,0,0,0,0,0,0,0,0,0,0,0,0,0,0,0,0,0,0,247,0,0,0,0,0,12,0,0
420000-ASSOCIAÇÃO DO PLANO DE SAÚDE DA SANTA CASA,0,0,0,0,8163,68,0,0,0,0,0,1,0,0,0,1,0,3,0,0,0,0,0,0,3,1,0
420069-ECO SAÚDE PLANO EMPRESARIAL LTDA - EPP,0,0,0,0,0,0,0,0,0,94,0,0,0,0,0,0,0,0,0,0,0,0,0,0,0,0,0
"420077-SERVIÇO SOCIAL DA INDÚSTRIA DO PAPEL, PAPE",0,1,709,101,6341,21,28,1435,30,1697,18,51,1518,1111,3,188,155,36,64,8,55,0,0,38,48852,6,133
420085-SANTA CASA DE SAÚDE - SCS,0,0,0,0,0,0,0,8984,0,0,0,0,1,0,0,0,0,0,2,0,0,0,0,0,1,0,0
420093-ASSOCIACAO DOS SERVIDORES DA EMDAGRO - ASS,0,4,0,0,0,0,0,0,0,0,0,0,0,0,3,0,0,0,0,0,0,0,0,0,0,872,0
420123-ASSOCIAÇÃO UNIVIDA SANTA RITA DO PASSA QUA,0,0,0,0,0,0,0,0,0,0,0,0,0,0,0,0,0,0,0,0,0,0,0,0,17,0,0
420158-ASSOCIAÇÃO PADRE ALBINO SAÚDE,0,0,0,0,1,1,0,0,0,0,0,1,0,0,0,0,0,0,0,0,1,0,0,8,18742,0,0
420166-PLANO DE SAÚDE DA SANTA CASA DE BRAGANÇA P,0,0,0,0,0,0,4,0,0,0,0,0,758,0,0,0,0,0,5,1,0,2,0,0,23301,0,0
420204-GREEN LIFE PLUS PLANOS MÉDICOS LTDA - EPP,0,0,0,0,6,0,0,0,1,0,0,0,5,0,0,0,0,0,10,0,0,0,0,0,5434,0,0
420271-R.M.I. OPERADORA DE SAÚDE INTEGRADA LTDA,0,0,0,0,0,0,0,0,0,0,0,0,0,0,0,0,0,0,0,0,0,0,0,0,2,0,0
420905-ESTALEIRO ATLÂNTICO SUL S/A,0,0,0,0,0,0,0,0,0,0,0,0,0,0,0,0,8,0,0,0,0,0,0,0,0,0,0
421006-ASSOCIAÇÃO SÃO LUIZ SAÚDE,0,0,0,0,0,0,0,0,0,0,0,0,0,0,0,0,0,0,0,0,0,0,0,0,754,0,0
421341-CAIXA DE ASSISTÊNCIA À SAÚDE DOS SERVIDORES,0,2,0,0,2,6,9,1,18,0,36,6238,21,0,3,108,0,0,12,0,1,1,0,31,399,0,1
421197-SANTA CASA DE MAUÁ SAÚDE,0,0,0,0,0,0,0,0,0,0,0,0,0,0,0,0,0,0,0,0,0,0,0,0,190,0,0
