Competência,AC,AL,AP,AM,BA,CE,DF,ES,GO,MA,MT,MS,MG,PA,PB,PR,PE,PI,RJ,RN,RS,RO,RR,SC,SP,SE,TO
202003,42600,365580,64538,531085,1584348,1260822,906956,1112030,1155161,473420,574185,588687,5085665,782763,411865,2851488,1337161,329990,5362392,505113,2539029,149542,30107,1463292,17156293,317411,106860
201903,42206,370848,67906,514851,1584850,1286523,886680,1099907,1130045,464250,571595,597337,4989982,784197,411252,2837302,1331035,318363,5342847,501330,2545037,153266,29046,1471928,17119379,315095,108574
201803,42226,376219,69817,523575,1594810,1277917,859674,1085502,1108365,457768,563186,596358,5031394,777859,411228,2816652,1334916,311260,5401339,502800,2600520,158106,29308,1489370,17098409,310240,104458
201703,43526,390623,71246,521695,1588420,1248681,877899,1082318,1092358,457652,550154,649231,5053894,811822,413431,2813641,1359044,301202,5495708,497271,2621455,161187,30023,1481423,17260777,308152,104496
201603,43089,406940,73651,506426,1637315,1257945,900303,1109906,1112911,479169,560563,638232,5156830,850912,417517,2843753,1386038,296449,5767312,513157,2682104,171713,31161,1464894,17847028,318774,102860
201503,46521,397512,73002,555005,1664470,1233707,927863,1150407,1095671,486187,555542,621155,5415079,892797,416555,2875281,1429118,293641,6048092,528400,2744902,186080,34015,1525798,18612507,315019,100701
201403,44505,388987,74145,595567,1585175,1180822,848356,1162957,1020818,474900,511952,542570,5464846,842596,409311,2799958,1463825,264000,6126622,530925,2738554,188171,32879,1468119,18554872,303813,96885
201303,42855,377677,68424,552624,1535869,1117772,812189,1126075,953956,429387,462411,465040,5371980,780753,382314,2570458,1532876,244422,5862631,508155,2643620,216556,29486,1375841,18083714,290467,91788
201203,45911,354873,66113,537707,1489885,1042228,712898,1123163,875235,393614,413164,425676,5086053,741767,356356,2510272,1461901,220315,5808508,492747,2593595,179294,26775,1363827,17677858,280723,86729
201103,47669,334500,65251,473824,1446483,1054688,652015,1092551,811538,361507,401153,411501,4878725,740643,336662,2509760,1363337,243687,5648560,484312,2573812,183272,29000,1501963,17544330,254619,80402
201003,46456,288920,62525,417829,1373234,937578,628833,1023572,740272,305047,360328,375205,4550466,695317,323731,2333999,1268895,209543,5363706,443162,2421136,135178,26050,1417828,16978020,235292,70802
200903,42863,268991,59295,386412,1357384,871957,644070,952144,656917,291916,312814,358064,4323146,648908,308857,2171040,1200884,190607,5298138,402697,2280208,112289,23562,1376657,16654478,220422,64269
200803,39920,247160,59855,351551,1248914,799437,670211,877387,578359,268388,273682,333105,4118203,613751,302946,2074931,1103851,172338,5118557,378223,2178288,114353,19954,1279030,16283395,205379,64184
200703,35919,239742,54702,290210,1175311,752464,646554,835553,543811,242371,253256,337729,3729246,563625,291045,1951964,1029171,151284,4731172,347646,1952197,105492,16094,1193526,15603873,186065,56616
200603,35423,214778,46982,231495,1106642,705873,610075,802331,508066,221550,319008,326533,3456597,496566,276251,1869259,1006794,133268,4934483,312731,1830634,98874,14688,1155195,14818534,173064,54425
200503,32310,193207,44775,191943,1071512,581984,607658,725201,465183,227685,279844,316825,3366069,538651,277669,1782917,1033767,129211,4634312,301416,1721922,89876,13256,948996,14071587,158436,49683
200403,22037,169918,41758,153273,1050018,573773,632850,702673,456951,219899,256183,316077,3322098,489369,258262,1670609,971534,120401,4137864,282973,1560233,79876,11913,907991,13730200,150720,49153
200303,20312,156152,31758,151072,1032467,536108,572203,705275,430057,227414,232083,310687,3326295,434426,224850,1525357,906741,108994,3969282,257299,1410124,70501,10782,889749,13861571,143684,47138
200203,17554,141878,25346,166692,992628,510419,541889,694545,497789,215510,200480,219105,3352570,320451,217752,1485929,845793,100833,3983922,250472,1321467,62528,9900,871337,14064000,147621,44271
200103,16089,136286,19168,183345,995145,515060,590333,648009,460155,208938,183997,221891,3360752,330844,229546,1463545,813963,104162,3882043,249386,1266388,54165,8907,837467,14232928,137427,36107
200003,14757,128507,14839,166228,1495980,560203,558321,644010,392335,205237,129173,191056,3233740,309490,245142,1412850,817242,101891,3638130,279526,1164775,49657,8184,770743,13817108,119147,27145
